spectrum_txt/data_42_025.txt

Channel              :		CH1		CH2
Frequency            :		1.381kHz		  ?
Period               :		0.724ms		  ?
PK-PK                :		703.1mV		5.469mV
Probe attenuation    :		1X		1X
Voltage per ADC value:		4.882813mV		0.012207mV
Time interval        :		0.20000uS		0.20000uS

index		CH1_Voltage(mV)		CH2_Voltage(mV)
1		-312.500000		1.757813
2		-312.500000		1.757813
3		-312.500000		2.343750
4		-312.500000		2.343750
5		-312.500000		1.953125
6		-312.500000		1.953125
7		-312.500000		1.367188
8		-312.500000		1.367188
9		-312.500000		0.390625
10		-312.500000		1.953125
11		-312.500000		1.367188
12		-312.500000		2.734375
13		-312.500000		1.562500
14		-312.500000		1.757813
15		-312.500000		1.757813
16		-312.500000		1.757813
17		-312.500000		1.953125
18		-312.500000		2.148438
19		-312.500000		1.953125
20		-312.500000		1.953125
21		-312.500000		1.367188
22		-312.500000		1.953125
23		-312.500000		1.367188
24		-312.500000		2.734375
25		-312.500000		1.757813
26		-312.500000		2.734375
27		-312.500000		1.171875
28		-312.500000		2.148438
29		-312.500000		1.171875
30		-312.500000		1.757813
31		-312.500000		1.757813
32		-312.500000		2.539063
33		-312.500000		1.171875
34		-312.500000		1.171875
35		-312.500000		0.976563
36		-312.500000		1.367188
37		-312.500000		1.562500
38		-312.500000		2.539063
39		-312.500000		1.953125
40		-312.500000		2.929688
41		-312.500000		1.367188
42		-312.500000		2.148438
43		-312.500000		0.976563
44		-312.500000		1.953125
45		-312.500000		1.367188
46		-312.500000		2.539063
47		-312.500000		1.953125
48		-312.500000		2.148438
49		-312.500000		1.367188
50		-312.500000		1.367188
51		-312.500000		1.367188
52		-312.500000		1.757813
53		-312.500000		1.953125
54		-312.500000		2.734375
55		-312.500000		1.367188
56		-312.500000		2.539063
57		-312.500000		0.781250
58		-312.500000		1.757813
59		-312.500000		0.585938
60		-312.500000		2.148438
61		-312.500000		1.953125
62		-312.500000		2.734375
63		-312.500000		1.562500
64		-312.500000		2.148438
65		-312.500000		1.562500
66		-312.500000		1.757813
67		-312.500000		1.562500
68		-312.500000		2.343750
69		-312.500000		2.148438
70		-312.500000		2.929688
71		-312.500000		0.976563
72		-312.500000		2.148438
73		-312.500000		0.585938
74		-312.500000		2.343750
75		-312.500000		1.562500
76		-312.500000		2.734375
77		-312.500000		1.562500
78		-312.500000		1.953125
79		-312.500000		0.976563
80		-312.500000		1.562500
81		-312.500000		1.562500
82		-312.500000		2.148438
83		-312.500000		1.757813
84		-312.500000		2.539063
85		-312.500000		1.367188
86		-312.500000		2.343750
87		-312.500000		0.976563
88		-312.500000		1.953125
89		-312.500000		0.976563
90		-312.500000		3.125000
91		-312.500000		1.757813
92		-312.500000		2.539063
93		-312.500000		1.171875
94		-312.500000		1.757813
95		-312.500000		0.976563
96		-312.500000		1.953125
97		-312.500000		0.390625
98		-312.500000		1.953125
99		-312.500000		1.562500
100		-312.500000		2.148438
101		-312.500000		0.976563
102		-312.500000		1.953125
103		-312.500000		0.976563
104		-312.500000		2.539063
105		-312.500000		1.367188
106		-312.500000		2.734375
107		-312.500000		1.171875
108		-312.500000		1.953125
109		-312.500000		0.781250
110		-312.500000		1.757813
111		-312.500000		1.562500
112		-312.500000		2.343750
113		-312.500000		1.757813
114		-312.500000		1.953125
115		-312.500000		1.367188
116		-312.500000		1.757813
117		-312.500000		0.976563
118		-312.500000		1.953125
119		-312.500000		1.562500
120		-312.500000		2.539063
121		-312.500000		1.562500
122		-312.500000		2.734375
123		-312.500000		0.976563
124		-312.500000		2.148438
125		-312.500000		1.562500
126		-312.500000		2.343750
127		-312.500000		1.953125
128		-312.500000		2.343750
129		-312.500000		1.367188
130		-312.500000		1.562500
131		-312.500000		0.781250
132		-312.500000		1.757813
133		-312.500000		1.367188
134		-312.500000		2.539063
135		-312.500000		1.367188
136		-312.500000		2.343750
137		-312.500000		0.781250
138		-312.500000		1.953125
139		-312.500000		1.171875
140		-312.500000		2.539063
141		-312.500000		1.757813
142		-312.500000		2.539063
143		-312.500000		1.367188
144		-312.500000		1.562500
145		-312.500000		0.976563
146		-312.500000		1.562500
147		-312.500000		1.562500
148		-312.500000		2.539063
149		-312.500000		2.148438
150		-312.500000		2.343750
151		-312.500000		1.367188
152		-312.500000		1.953125
153		-312.500000		0.976563
154		-312.500000		2.539063
155		-312.500000		1.757813
156		-312.500000		2.734375
157		-312.500000		1.757813
158		-312.500000		1.953125
159		-312.500000		1.562500
160		-312.500000		1.367188
161		-312.500000		1.367188
162		-312.500000		1.953125
163		-312.500000		1.953125
164		-312.500000		2.343750
165		-312.500000		1.367188
166		-312.500000		1.953125
167		-312.500000		1.367188
168		-312.500000		2.343750
169		-312.500000		1.562500
170		-312.500000		2.734375
171		-312.500000		1.562500
172		-312.500000		2.343750
173		-312.500000		0.976563
174		-312.500000		1.757813
175		-312.500000		1.171875
176		-312.500000		1.953125
177		-312.500000		2.343750
178		-312.500000		2.343750
179		-312.500000		1.953125
180		-312.500000		1.757813
181		-312.500000		0.976563
182		-312.500000		1.562500
183		-312.500000		1.367188
184		-312.500000		2.539063
185		-312.500000		1.562500
186		-312.500000		2.539063
187		-312.500000		1.757813
188		-312.500000		1.953125
189		-312.500000		1.562500
190		-312.500000		1.757813
191		-312.500000		1.757813
192		-312.500000		1.757813
193		-312.500000		1.953125
194		-312.500000		1.757813
195		-312.500000		1.953125
196		-312.500000		1.757813
197		-312.500000		1.562500
198		-312.500000		1.757813
199		-312.500000		1.757813
200		-312.500000		2.734375
201		-312.500000		1.367188
202		-312.500000		2.148438
203		-312.500000		0.976563
204		-312.500000		1.757813
205		-312.500000		1.562500
206		-312.500000		2.343750
207		-312.500000		2.343750
208		-312.500000		2.539063
209		-312.500000		1.757813
210		-312.500000		1.367188
211		-312.500000		1.562500
212		-312.500000		1.562500
213		-312.500000		1.953125
214		-312.500000		2.148438
215		-312.500000		1.562500
216		-312.500000		1.953125
217		-312.500000		0.976563
218		-312.500000		1.757813
219		-312.500000		1.562500
220		-312.500000		2.343750
221		-312.500000		1.757813
222		-312.500000		2.148438
223		-312.500000		1.562500
224		-312.500000		1.367188
225		-312.500000		1.562500
226		-312.500000		1.562500
227		-312.500000		1.953125
228		-312.500000		2.148438
229		-312.500000		2.148438
230		-312.500000		1.953125
231		-312.500000		1.367188
232		-312.500000		1.367188
233		-312.500000		0.976563
234		-312.500000		2.539063
235		-312.500000		2.343750
236		-312.500000		2.343750
237		-312.500000		1.367188
238		-312.500000		1.757813
239		-312.500000		1.367188
240		-312.500000		1.367188
241		-312.500000		2.148438
242		-312.500000		2.148438
243		-312.500000		2.148438
244		-312.500000		1.953125
245		-312.500000		1.562500
246		-312.500000		1.757813
247		-312.500000		1.562500
248		-312.500000		1.953125
249		-312.500000		1.171875
250		-312.500000		2.343750
251		-312.500000		1.367188
252		-312.500000		2.148438
253		-312.500000		1.367188
254		-312.500000		1.757813
255		-312.500000		1.953125
256		-312.500000		1.953125
257		-312.500000		2.539063
258		-312.500000		1.953125
259		-312.500000		1.562500
260		-312.500000		1.367188
261		-312.500000		1.171875
262		-312.500000		2.148438
263		-312.500000		1.757813
264		-312.500000		2.734375
265		-312.500000		1.367188
266		-312.500000		2.539063
267		-312.500000		0.976563
268		-312.500000		1.757813
269		-312.500000		1.562500
270		-312.500000		2.343750
271		-312.500000		2.148438
272		-312.500000		2.148438
273		-312.500000		1.953125
274		-312.500000		1.562500
275		-312.500000		1.367188
276		-312.500000		1.757813
277		-312.500000		2.343750
278		-312.500000		3.320313
279		-312.500000		1.757813
280		-312.500000		2.539063
281		-312.500000		0.976563
282		-312.500000		1.953125
283		-312.500000		1.171875
284		-312.500000		2.343750
285		-312.500000		1.953125
286		-312.500000		2.539063
287		-312.500000		1.757813
288		-312.500000		1.953125
289		-312.500000		1.367188
290		-312.500000		1.757813
291		-312.500000		1.562500
292		-312.500000		2.734375
293		-312.500000		1.757813
294		-312.500000		2.148438
295		-312.500000		0.390625
296		-312.500000		1.757813
297		-312.500000		0.976563
298		-312.500000		2.539063
299		-312.500000		1.757813
300		-312.500000		2.734375
301		-312.500000		1.562500
302		-312.500000		2.148438
303		-312.500000		1.367188
304		-312.500000		1.367188
305		-312.500000		1.367188
306		-312.500000		2.343750
307		-312.500000		1.757813
308		-312.500000		2.734375
309		-312.500000		1.171875
310		-312.500000		2.148438
311		-312.500000		0.976563
312		-312.500000		2.539063
313		-312.500000		1.367188
314		-312.500000		3.125000
315		-312.500000		1.562500
316		-312.500000		2.148438
317		-312.500000		1.171875
318		-312.500000		1.562500
319		-312.500000		1.953125
320		-312.500000		2.343750
321		-312.500000		1.171875
322		-312.500000		2.148438
323		-312.500000		1.367188
324		-312.500000		1.953125
325		-312.500000		0.585938
326		-312.500000		1.953125
327		-312.500000		0.976563
328		-312.500000		2.734375
329		-312.500000		1.367188
330		-312.500000		2.929688
331		-312.500000		1.367188
332		-312.500000		1.757813
333		-312.500000		1.171875
334		-312.500000		1.757813
335		-312.500000		1.562500
336		-312.500000		2.539063
337		-312.500000		1.757813
338		-312.500000		2.539063
339		-312.500000		1.562500
340		-312.500000		2.148438
341		-312.500000		0.976563
342		-312.500000		2.343750
343		-312.500000		1.562500
344		-312.500000		2.929688
345		-312.500000		0.976563
346		-312.500000		2.148438
347		-312.500000		0.585938
348		-312.500000		1.562500
349		-312.500000		1.367188
350		-312.500000		2.148438
351		-312.500000		1.562500
352		-312.500000		2.539063
353		-312.500000		1.171875
354		-312.500000		1.562500
355		-312.500000		0.781250
356		-312.500000		1.953125
357		-312.500000		1.171875
358		-312.500000		2.929688
359		-312.500000		1.171875
360		-312.500000		2.539063
361		-312.500000		0.781250
362		-312.500000		2.148438
363		-312.500000		0.976563
364		-312.500000		2.148438
365		-312.500000		1.367188
366		-312.500000		1.757813
367		-312.500000		1.171875
368		-312.500000		1.757813
369		-312.500000		1.171875
370		-312.500000		1.757813
371		-312.500000		1.171875
372		-312.500000		2.734375
373		-312.500000		1.562500
374		-312.500000		2.734375
375		-312.500000		0.390625
376		-312.500000		1.953125
377		-312.500000		0.585938
378		-312.500000		2.343750
379		-312.500000		1.562500
380		-312.500000		2.539063
381		-312.500000		1.367188
382		-312.500000		2.148438
383		-312.500000		1.171875
384		-312.500000		1.367188
385		-312.500000		1.171875
386		-312.500000		2.343750
387		-312.500000		1.757813
388		-312.500000		3.125000
389		-312.500000		1.367188
390		-312.500000		2.539063
391		-312.500000		0.585938
392		-312.500000		2.148438
393		-312.500000		1.562500
394		-312.500000		2.929688
395		-312.500000		1.757813
396		-312.500000		2.929688
397		-312.500000		1.367188
398		-312.500000		1.757813
399		-312.500000		1.171875
400		-312.500000		1.757813
401		-312.500000		1.953125
402		-312.500000		2.539063
403		-312.500000		2.343750
404		-312.500000		1.562500
405		-312.500000		0.585938
406		-312.500000		1.562500
407		-312.500000		1.562500
408		-312.500000		2.929688
409		-312.500000		1.367188
410		-312.500000		2.734375
411		-312.500000		1.171875
412		-312.500000		1.757813
413		-312.500000		0.976563
414		-312.500000		1.757813
415		-312.500000		1.953125
416		-312.500000		2.539063
417		-312.500000		1.757813
418		-312.500000		2.539063
419		-312.500000		1.367188
420		-312.500000		1.953125
421		-312.500000		0.781250
422		-312.500000		2.148438
423		-312.500000		0.976563
424		-312.500000		3.125000
425		-312.500000		1.171875
426		-312.500000		2.343750
427		-312.500000		1.562500
428		-312.500000		1.562500
429		-312.500000		1.367188
430		-312.500000		1.953125
431		-312.500000		1.757813
432		-312.500000		2.148438
433		-312.500000		1.171875
434		-312.500000		1.367188
435		-312.500000		1.171875
436		-312.500000		1.953125
437		-312.500000		1.367188
438		-312.500000		2.929688
439		-312.500000		1.367188
440		-312.500000		2.539063
441		-312.500000		0.781250
442		-312.500000		1.953125
443		-312.500000		0.781250
444		-312.500000		1.562500
445		-312.500000		1.757813
446		-312.500000		2.539063
447		-312.500000		1.757813
448		-312.500000		1.562500
449		-312.500000		1.171875
450		-312.500000		1.367188
451		-312.500000		1.562500
452		-312.500000		2.343750
453		-312.500000		1.562500
454		-312.500000		2.734375
455		-312.500000		0.781250
456		-312.500000		1.757813
457		-312.500000		1.367188
458		-312.500000		2.343750
459		-312.500000		1.757813
460		-312.500000		2.343750
461		-312.500000		1.562500
462		-312.500000		1.562500
463		-312.500000		1.171875
464		-312.500000		1.171875
465		-312.500000		1.367188
466		-312.500000		2.148438
467		-312.500000		1.562500
468		-312.500000		2.148438
469		-312.500000		0.976563
470		-312.500000		1.757813
471		-312.500000		0.781250
472		-312.500000		1.757813
473		-312.500000		1.367188
474		-312.500000		2.734375
475		-312.500000		2.148438
476		-312.500000		2.343750
477		-312.500000		1.171875
478		-312.500000		1.367188
479		-312.500000		1.367188
480		-312.500000		1.562500
481		-312.500000		1.757813
482		-312.500000		1.953125
483		-312.500000		1.562500
484		-312.500000		1.953125
485		-312.500000		1.171875
486		-312.500000		0.976563
487		-312.500000		0.585938
488		-312.500000		2.148438
489		-312.500000		1.953125
490		-312.500000		3.320313
491		-312.500000		1.562500
492		-312.500000		1.757813
493		-312.500000		1.367188
494		-312.500000		1.171875
495		-312.500000		1.757813
496		-312.500000		1.953125
497		-312.500000		1.562500
498		-312.500000		1.562500
499		-312.500000		0.585938
500		-312.500000		1.562500
501		-312.500000		0.976563
502		-312.500000		2.148438
503		-312.500000		1.367188
504		-312.500000		2.539063
505		-312.500000		1.367188
506		-312.500000		1.562500
507		-312.500000		1.171875
508		-312.500000		1.367188
509		-312.500000		1.953125
510		-312.500000		2.148438
511		-312.500000		1.953125
512		-312.500000		1.953125
513		-312.500000		1.562500
514		-312.500000		1.367188
515		-312.500000		1.367188
516		-312.500000		2.539063
517		-312.500000		1.171875
518		-312.500000		2.734375
519		-312.500000		1.367188
520		-312.500000		2.148438
521		-312.500000		1.171875
522		-312.500000		1.562500
523		-312.500000		1.562500
524		-312.500000		1.953125
525		-312.500000		2.148438
526		-312.500000		1.953125
527		-312.500000		1.171875
528		-312.500000		1.562500
529		-312.500000		1.171875
530		-312.500000		1.953125
531		-312.500000		1.562500
532		-312.500000		2.734375
533		-312.500000		1.367188
534		-312.500000		1.953125
535		-312.500000		0.976563
536		-312.500000		1.562500
537		-312.500000		1.562500
538		-312.500000		2.148438
539		-312.500000		1.757813
540		-312.500000		2.148438
541		-312.500000		1.562500
542		-312.500000		1.562500
543		-312.500000		1.367188
544		-312.500000		1.953125
545		-312.500000		1.757813
546		-312.500000		2.539063
547		-312.500000		0.781250
548		-312.500000		1.562500
549		-312.500000		0.390625
550		-312.500000		1.953125
551		-312.500000		1.171875
552		-312.500000		1.953125
553		-312.500000		1.953125
554		-312.500000		2.343750
555		-312.500000		1.367188
556		-312.500000		1.562500
557		-312.500000		1.171875
558		-312.500000		1.562500
559		-312.500000		1.367188
560		-312.500000		2.539063
561		-312.500000		1.367188
562		-312.500000		2.343750
563		-312.500000		0.781250
564		-312.500000		2.148438
565		-312.500000		0.976563
566		-312.500000		2.148438
567		-312.500000		1.562500
568		-312.500000		2.148438
569		-312.500000		0.781250
570		-312.500000		0.976563
571		-312.500000		0.781250
572		-312.500000		1.562500
573		-312.500000		2.148438
574		-312.500000		2.148438
575		-312.500000		1.367188
576		-312.500000		2.734375
577		-312.500000		0.585938
578		-312.500000		1.757813
579		-312.500000		0.390625
580		-312.500000		2.148438
581		-312.500000		1.367188
582		-312.500000		2.539063
583		-312.500000		1.367188
584		-312.500000		1.953125
585		-312.500000		1.171875
586		-312.500000		1.367188
587		-312.500000		1.171875
588		-312.500000		1.757813
589		-312.500000		1.367188
590		-312.500000		2.343750
591		-312.500000		1.171875
592		-312.500000		2.148438
593		-312.500000		0.781250
594		-312.500000		1.953125
595		-312.500000		0.976563
596		-312.500000		2.539063
597		-312.500000		1.562500
598		-312.500000		2.343750
599		-312.500000		1.171875
600		-312.500000		1.562500
601		-312.500000		0.976563
602		-312.500000		1.757813
603		-312.500000		0.976563
604		-312.500000		2.343750
605		-312.500000		1.171875
606		-312.500000		2.148438
607		-312.500000		1.367188
608		-312.500000		1.953125
609		-312.500000		0.781250
610		-312.500000		2.148438
611		-312.500000		0.976563
612		-312.500000		2.539063
613		-312.500000		0.976563
614		-312.500000		1.953125
615		-312.500000		0.781250
616		-312.500000		1.367188
617		-312.500000		0.976563
618		-312.500000		1.953125
619		-312.500000		1.171875
620		-312.500000		1.953125
621		-312.500000		0.781250
622		-312.500000		1.562500
623		-312.500000		0.585938
624		-312.500000		1.953125
625		-312.500000		0.585938
626		-312.500000		2.734375
627		-312.500000		0.976563
628		-312.500000		2.148438
629		-312.500000		0.976563
630		-312.500000		1.367188
631		-312.500000		0.781250
632		-312.500000		1.953125
633		-312.500000		1.757813
634		-312.500000		1.757813
635		-312.500000		0.000000
636		-312.500000		1.953125
637		-312.500000		0.976563
638		-312.500000		1.757813
639		-312.500000		0.781250
640		-312.500000		2.148438
641		-312.500000		0.781250
642		-312.500000		2.343750
643		-312.500000		0.585938
644		-312.500000		1.562500
645		-312.500000		0.585938
646		-312.500000		1.367188
647		-312.500000		1.171875
648		-312.500000		2.148438
649		-312.500000		1.171875
650		-312.500000		1.562500
651		-312.500000		0.781250
652		-312.500000		1.171875
653		-312.500000		1.562500
654		-312.500000		2.343750
655		-312.500000		0.976563
656		-312.500000		1.562500
657		-312.500000		0.390625
658		-312.500000		1.562500
659		-312.500000		0.390625
660		-312.500000		1.757813
661		-312.500000		1.171875
662		-312.500000		2.148438
663		-312.500000		1.171875
664		-312.500000		1.562500
665		-312.500000		0.976563
666		-312.500000		1.171875
667		-312.500000		0.976563
668		-312.500000		1.953125
669		-312.500000		0.976563
670		-312.500000		2.343750
671		-312.500000		0.585938
672		-312.500000		1.953125
673		-312.500000		0.000000
674		-312.500000		1.757813
675		-312.500000		0.976563
676		-312.500000		2.148438
677		-312.500000		1.171875
678		-312.500000		1.757813
679		-312.500000		1.171875
680		-312.500000		1.367188
681		-312.500000		0.781250
682		-312.500000		1.367188
683		-312.500000		1.171875
684		-312.500000		2.148438
685		-312.500000		1.171875
686		-312.500000		1.757813
687		-312.500000		0.390625
688		-312.500000		1.757813
689		-312.500000		0.585938
690		-312.500000		2.343750
691		-312.500000		0.976563
692		-312.500000		1.953125
693		-312.500000		0.781250
694		-312.500000		1.171875
695		-312.500000		0.976563
696		-312.500000		1.171875
697		-312.500000		1.171875
698		-312.500000		1.367188
699		-312.500000		1.367188
700		-312.500000		1.757813
701		-312.500000		0.781250
702		-312.500000		1.562500
703		-312.500000		0.781250
704		-312.500000		2.343750
705		-312.500000		0.976563
706		-312.500000		2.343750
707		-312.500000		0.781250
708		-312.500000		1.367188
709		-312.500000		0.585938
710		-312.500000		1.171875
711		-312.500000		1.171875
712		-312.500000		1.953125
713		-312.500000		1.367188
714		-312.500000		1.562500
715		-312.500000		1.171875
716		-312.500000		1.562500
717		-312.500000		0.781250
718		-312.500000		1.562500
719		-312.500000		0.976563
720		-312.500000		2.539063
721		-312.500000		0.976563
722		-312.500000		1.757813
723		-312.500000		0.585938
724		-312.500000		2.539063
725		-312.500000		2.148438
726		-312.500000		2.148438
727		-312.500000		1.757813
728		-312.500000		1.562500
729		-312.500000		1.171875
730		-312.500000		1.367188
731		-312.500000		1.367188
732		-312.500000		1.562500
733		-312.500000		1.171875
