spectrum_txt/data_42_024.txt

Channel              :		CH1		CH2
Frequency            :		732.4Hz		75.30Hz
Period               :		1.365ms		13.28ms
PK-PK                :		703.1mV		9.766mV
Probe attenuation    :		1X		1X
Voltage per ADC value:		4.882813mV		0.012207mV
Time interval        :		10.00000uS		10.00000uS

index		CH1_Voltage(mV)		CH2_Voltage(mV)
1		-312.500000		6.054688
2		-312.500000		6.054688
3		-312.500000		5.859375
4		-312.500000		5.273438
5		312.500000		5.078125
6		312.500000		4.296875
7		390.625000		3.906250
8		312.500000		4.492188
9		312.500000		4.296875
10		312.500000		4.296875
11		312.500000		4.492188
12		312.500000		4.687500
13		312.500000		5.273438
14		312.500000		5.078125
15		312.500000		5.273438
16		312.500000		5.078125
17		312.500000		5.078125
18		312.500000		4.882813
19		312.500000		5.859375
20		312.500000		5.273438
21		312.500000		4.296875
22		312.500000		4.296875
23		312.500000		4.101563
24		312.500000		4.492188
25		312.500000		4.296875
26		312.500000		4.492188
27		312.500000		4.101563
28		312.500000		4.296875
29		312.500000		4.687500
30		312.500000		5.078125
31		312.500000		5.078125
32		312.500000		5.078125
33		312.500000		5.468750
34		312.500000		4.882813
35		312.500000		5.664063
36		312.500000		5.078125
37		312.500000		5.468750
38		312.500000		5.468750
39		-312.500000		5.664063
40		-312.500000		5.078125
41		-312.500000		5.468750
42		-312.500000		5.078125
43		-312.500000		5.078125
44		-312.500000		4.492188
45		-312.500000		4.296875
46		-312.500000		4.101563
47		-312.500000		3.710938
48		-312.500000		3.515625
49		-312.500000		3.515625
50		-312.500000		2.929688
51		-312.500000		2.734375
52		-312.500000		3.125000
53		-312.500000		3.320313
54		-312.500000		3.320313
55		-312.500000		3.906250
56		-312.500000		4.296875
57		-312.500000		4.296875
58		-312.500000		5.273438
59		-312.500000		5.468750
60		-312.500000		5.468750
61		-312.500000		5.273438
62		-312.500000		5.078125
63		-312.500000		5.078125
64		-312.500000		5.078125
65		-312.500000		4.687500
66		-312.500000		4.492188
67		-312.500000		4.687500
68		-312.500000		4.492188
69		-312.500000		4.687500
70		-312.500000		4.882813
71		-312.500000		5.468750
72		-312.500000		6.054688
73		-312.500000		5.859375
74		-312.500000		5.273438
75		-312.500000		4.492188
76		-312.500000		4.296875
77		-312.500000		3.710938
78		312.500000		3.710938
79		312.500000		2.929688
80		312.500000		3.125000
81		312.500000		4.492188
82		312.500000		4.492188
83		312.500000		4.687500
84		312.500000		4.492188
85		312.500000		5.078125
86		312.500000		4.882813
87		312.500000		4.101563
88		312.500000		3.515625
89		312.500000		4.101563
90		312.500000		4.101563
91		312.500000		3.320313
92		312.500000		5.078125
93		312.500000		5.859375
94		312.500000		6.054688
95		312.500000		5.664063
96		312.500000		5.273438
97		312.500000		4.296875
98		312.500000		4.882813
99		312.500000		5.664063
100		312.500000		5.664063
101		312.500000		6.054688
102		312.500000		6.054688
103		312.500000		5.078125
104		312.500000		4.882813
105		312.500000		4.687500
106		312.500000		4.882813
107		312.500000		5.664063
108		312.500000		5.273438
109		312.500000		4.687500
110		312.500000		3.906250
111		-312.500000		3.906250
112		-312.500000		4.492188
113		-312.500000		5.273438
114		-312.500000		5.273438
115		-312.500000		4.882813
116		-312.500000		4.101563
117		-312.500000		3.906250
118		-312.500000		4.882813
119		-312.500000		6.054688
120		-312.500000		6.250000
121		-312.500000		5.664063
122		-312.500000		4.882813
123		-312.500000		4.296875
124		-312.500000		5.273438
125		-312.500000		6.250000
126		-312.500000		6.445313
127		-312.500000		5.664063
128		-312.500000		5.078125
129		-312.500000		4.882813
130		-312.500000		5.468750
131		-312.500000		5.664063
132		-312.500000		5.859375
133		-312.500000		5.664063
134		-312.500000		5.273438
135		-312.500000		4.882813
136		-312.500000		4.687500
137		-312.500000		4.882813
138		-312.500000		5.078125
139		-312.500000		5.078125
140		-312.500000		5.273438
141		-312.500000		4.492188
142		-312.500000		4.492188
143		-312.500000		4.101563
144		-312.500000		4.687500
145		-312.500000		6.250000
146		-312.500000		6.054688
147		-312.500000		5.859375
148		-312.500000		5.273438
149		-312.500000		4.882813
150		312.500000		5.664063
151		312.500000		6.250000
152		312.500000		6.835938
153		312.500000		6.640625
154		312.500000		5.664063
155		312.500000		4.882813
156		312.500000		4.882813
157		312.500000		5.468750
158		312.500000		5.859375
159		312.500000		5.859375
160		312.500000		4.687500
161		312.500000		3.710938
162		312.500000		4.492188
163		312.500000		4.492188
164		312.500000		5.664063
165		312.500000		6.054688
166		312.500000		4.882813
167		312.500000		4.492188
168		312.500000		4.882813
169		312.500000		4.687500
170		312.500000		5.664063
171		312.500000		5.468750
172		312.500000		4.882813
173		312.500000		4.296875
174		312.500000		3.710938
175		312.500000		3.906250
176		312.500000		4.492188
177		312.500000		4.101563
178		312.500000		4.492188
179		312.500000		4.882813
180		312.500000		3.906250
181		312.500000		4.492188
182		312.500000		4.687500
183		312.500000		5.468750
184		-312.500000		5.078125
185		-312.500000		4.687500
186		-312.500000		4.296875
187		-312.500000		3.906250
188		-312.500000		5.078125
189		-312.500000		5.273438
190		-312.500000		5.468750
191		-312.500000		6.250000
192		-312.500000		6.054688
193		-312.500000		5.468750
194		-312.500000		5.468750
195		-312.500000		5.078125
196		-312.500000		4.687500
197		-312.500000		5.664063
198		-312.500000		5.664063
199		-312.500000		5.664063
200		-312.500000		6.250000
201		-312.500000		6.250000
202		-312.500000		6.054688
203		-312.500000		5.078125
204		-312.500000		5.664063
205		-312.500000		5.468750
206		-312.500000		5.664063
207		-312.500000		4.687500
208		-312.500000		5.468750
209		-312.500000		5.468750
210		-312.500000		5.468750
211		-312.500000		6.250000
212		-312.500000		5.664063
213		-312.500000		5.859375
214		-312.500000		5.859375
215		-312.500000		6.250000
216		-312.500000		6.445313
217		-312.500000		6.250000
218		-312.500000		6.054688
219		-312.500000		6.445313
220		-312.500000		6.250000
221		-312.500000		6.054688
222		-156.250000		5.664063
223		312.500000		5.664063
224		312.500000		6.054688
225		312.500000		6.445313
226		312.500000		6.640625
227		312.500000		6.250000
228		312.500000		6.640625
229		312.500000		7.421875
230		312.500000		7.031250
231		312.500000		6.640625
232		312.500000		6.054688
233		312.500000		6.054688
234		312.500000		5.468750
235		312.500000		5.664063
236		312.500000		5.664063
237		312.500000		6.640625
238		312.500000		7.031250
239		312.500000		7.031250
240		312.500000		6.835938
241		312.500000		6.640625
242		312.500000		6.640625
243		312.500000		6.054688
244		312.500000		5.273438
245		312.500000		4.882813
246		312.500000		4.882813
247		312.500000		5.468750
248		312.500000		6.250000
249		312.500000		6.640625
250		312.500000		5.859375
251		312.500000		5.859375
252		312.500000		5.078125
253		312.500000		5.273438
254		312.500000		5.664063
255		312.500000		5.859375
256		-312.500000		7.031250
257		-312.500000		6.054688
258		-312.500000		5.078125
259		-312.500000		5.273438
260		-312.500000		4.882813
261		-312.500000		5.859375
262		-312.500000		7.226563
263		-312.500000		7.617188
264		-312.500000		6.250000
265		-312.500000		5.859375
266		-312.500000		6.640625
267		-312.500000		6.445313
268		-312.500000		7.031250
269		-312.500000		6.640625
270		-312.500000		5.859375
271		-312.500000		5.664063
272		-312.500000		6.250000
273		-312.500000		7.421875
274		-312.500000		7.617188
275		-312.500000		6.445313
276		-312.500000		6.054688
277		-312.500000		5.468750
278		-312.500000		6.640625
279		-312.500000		6.640625
280		-312.500000		5.664063
281		-312.500000		6.054688
282		-312.500000		6.640625
283		-312.500000		7.226563
284		-312.500000		6.054688
285		-312.500000		5.273438
286		-312.500000		6.054688
287		-312.500000		5.468750
288		-312.500000		5.859375
289		-312.500000		4.882813
290		-312.500000		5.078125
291		-312.500000		5.664063
292		-312.500000		6.054688
293		-312.500000		5.859375
294		-312.500000		5.078125
295		312.500000		5.078125
296		312.500000		5.859375
297		312.500000		5.859375
298		312.500000		5.664063
299		312.500000		4.882813
300		312.500000		5.273438
301		312.500000		6.250000
302		312.500000		6.445313
303		312.500000		6.835938
304		312.500000		6.250000
305		312.500000		6.054688
306		312.500000		6.835938
307		312.500000		7.421875
308		312.500000		6.835938
309		312.500000		5.859375
310		312.500000		5.468750
311		312.500000		5.468750
312		312.500000		5.664063
313		312.500000		6.250000
314		312.500000		6.054688
315		312.500000		6.640625
316		312.500000		5.859375
317		312.500000		5.078125
318		312.500000		5.078125
319		312.500000		5.078125
320		312.500000		4.882813
321		312.500000		5.859375
322		312.500000		5.273438
323		312.500000		5.273438
324		312.500000		5.078125
325		312.500000		5.664063
326		312.500000		5.273438
327		312.500000		6.054688
328		312.500000		6.250000
329		-312.500000		6.054688
330		-312.500000		6.640625
331		-312.500000		6.445313
332		-312.500000		5.664063
333		-312.500000		5.468750
334		-312.500000		5.078125
335		-312.500000		5.078125
336		-312.500000		5.273438
337		-312.500000		5.273438
338		-312.500000		5.078125
339		-312.500000		5.273438
340		-312.500000		4.687500
341		-312.500000		4.687500
342		-312.500000		5.078125
343		-312.500000		5.273438
344		-312.500000		5.273438
345		-312.500000		5.468750
346		-312.500000		5.078125
347		-312.500000		6.054688
348		-312.500000		6.054688
349		-312.500000		5.859375
350		-312.500000		7.031250
351		-312.500000		7.031250
352		-312.500000		6.054688
353		-312.500000		4.882813
354		-312.500000		5.664063
355		-312.500000		5.664063
356		-312.500000		7.226563
357		-312.500000		7.031250
358		-312.500000		6.250000
359		-312.500000		6.250000
360		-312.500000		5.664063
361		-312.500000		5.859375
362		-312.500000		6.054688
363		-312.500000		4.492188
364		-312.500000		4.296875
365		-312.500000		3.906250
366		-312.500000		4.296875
367		156.250000		4.492188
368		312.500000		4.296875
369		312.500000		4.296875
370		312.500000		4.687500
371		312.500000		4.492188
372		312.500000		5.273438
373		312.500000		5.078125
374		312.500000		4.687500
375		312.500000		4.492188
376		312.500000		4.296875
377		312.500000		4.882813
378		312.500000		4.687500
379		312.500000		5.273438
380		312.500000		4.882813
381		312.500000		5.273438
382		312.500000		5.273438
383		312.500000		5.273438
384		312.500000		4.492188
385		312.500000		5.273438
386		312.500000		5.078125
387		312.500000		4.687500
388		312.500000		4.101563
389		312.500000		3.906250
390		312.500000		4.296875
391		312.500000		4.687500
392		312.500000		4.296875
393		312.500000		3.906250
394		312.500000		4.296875
395		312.500000		4.882813
396		312.500000		4.882813
397		312.500000		4.296875
398		312.500000		4.296875
399		312.500000		4.101563
400		312.500000		4.296875
401		-312.500000		4.492188
402		-312.500000		4.687500
403		-312.500000		4.687500
404		-312.500000		5.078125
405		-312.500000		5.664063
406		-312.500000		5.664063
407		-312.500000		6.250000
408		-312.500000		6.835938
409		-312.500000		6.250000
410		-312.500000		6.640625
411		-312.500000		5.859375
412		-312.500000		6.640625
413		-312.500000		6.835938
414		-312.500000		5.859375
415		-312.500000		6.250000
416		-312.500000		5.859375
417		-312.500000		6.054688
418		-312.500000		5.859375
419		-312.500000		5.273438
420		-312.500000		5.468750
421		-312.500000		4.882813
422		-312.500000		4.687500
423		-312.500000		4.492188
424		-312.500000		5.078125
425		-312.500000		5.078125
426		-312.500000		4.492188
427		-312.500000		4.101563
428		-312.500000		3.906250
429		-312.500000		4.296875
430		-312.500000		4.492188
431		-312.500000		4.492188
432		-312.500000		4.101563
433		-312.500000		4.492188
434		-312.500000		3.906250
435		-312.500000		4.687500
436		-312.500000		4.882813
437		-312.500000		5.078125
438		-312.500000		5.273438
439		-312.500000		5.273438
440		312.500000		4.687500
441		312.500000		4.882813
442		312.500000		5.664063
443		312.500000		5.664063
444		312.500000		5.664063
445		312.500000		5.078125
446		312.500000		4.882813
447		312.500000		5.078125
448		312.500000		4.492188
449		312.500000		5.078125
450		312.500000		5.273438
451		312.500000		5.664063
452		312.500000		5.078125
453		312.500000		4.492188
454		312.500000		4.101563
455		312.500000		4.492188
456		312.500000		4.882813
457		312.500000		4.101563
458		312.500000		4.687500
459		312.500000		4.492188
460		312.500000		4.101563
461		312.500000		3.710938
462		312.500000		4.296875
463		312.500000		3.515625
464		312.500000		5.078125
465		312.500000		4.882813
466		312.500000		4.687500
467		312.500000		4.882813
468		312.500000		4.687500
469		312.500000		5.078125
470		312.500000		5.078125
471		312.500000		5.468750
472		312.500000		5.859375
473		312.500000		5.664063
474		-312.500000		4.882813
475		-312.500000		4.492188
476		-312.500000		4.687500
477		-312.500000		5.078125
478		-312.500000		4.296875
479		-312.500000		4.101563
480		-312.500000		4.296875
481		-312.500000		4.296875
482		-312.500000		3.515625
483		-312.500000		3.906250
484		-312.500000		4.296875
485		-312.500000		4.492188
486		-312.500000		4.687500
487		-312.500000		4.492188
488		-312.500000		5.273438
489		-312.500000		5.664063
490		-312.500000		5.468750
491		-312.500000		5.273438
492		-312.500000		6.250000
493		-312.500000		5.859375
494		-312.500000		5.273438
495		-312.500000		4.687500
496		-312.500000		4.296875
497		-312.500000		4.101563
498		-312.500000		3.710938
499		-312.500000		3.710938
500		-312.500000		3.906250
501		-312.500000		4.882813
502		-312.500000		4.492188
503		-312.500000		4.296875
504		-312.500000		5.078125
505		-312.500000		5.078125
506		-312.500000		5.273438
507		-312.500000		5.273438
508		-312.500000		6.054688
509		-312.500000		6.054688
510		-312.500000		5.664063
511		-312.500000		4.882813
512		234.375000		4.882813
513		312.500000		4.882813
514		312.500000		4.882813
515		312.500000		4.687500
516		312.500000		4.882813
517		312.500000		4.492188
518		312.500000		4.492188
519		312.500000		4.296875
520		312.500000		4.296875
521		312.500000		3.906250
522		312.500000		3.515625
523		312.500000		4.296875
524		312.500000		4.101563
525		312.500000		4.296875
526		312.500000		4.296875
527		312.500000		4.296875
528		312.500000		4.882813
529		312.500000		4.101563
530		312.500000		4.101563
531		312.500000		4.492188
532		312.500000		4.687500
533		312.500000		5.273438
534		312.500000		4.882813
535		312.500000		4.492188
536		312.500000		4.492188
537		312.500000		4.492188
538		312.500000		4.687500
539		312.500000		4.882813
540		312.500000		4.882813
541		312.500000		5.078125
542		312.500000		5.468750
543		312.500000		5.468750
544		312.500000		5.273438
545		312.500000		5.078125
546		-312.500000		4.882813
547		-312.500000		4.882813
548		-312.500000		5.468750
549		-312.500000		5.078125
550		-312.500000		4.882813
551		-312.500000		4.296875
552		-312.500000		4.492188
553		-312.500000		4.492188
554		-312.500000		5.468750
555		-312.500000		4.492188
556		-312.500000		4.492188
557		-312.500000		4.296875
558		-312.500000		4.492188
559		-312.500000		4.687500
560		-312.500000		4.296875
561		-312.500000		4.492188
562		-312.500000		4.296875
563		-312.500000		3.906250
564		-312.500000		4.101563
565		-312.500000		4.101563
566		-312.500000		3.515625
567		-312.500000		4.296875
568		-312.500000		4.296875
569		-312.500000		4.492188
570		-312.500000		4.687500
571		-312.500000		5.273438
572		-312.500000		6.250000
573		-312.500000		5.859375
574		-312.500000		6.250000
575		-312.500000		5.468750
576		-312.500000		5.468750
577		-312.500000		5.468750
578		-312.500000		5.468750
579		-312.500000		4.687500
580		-312.500000		5.078125
581		-312.500000		4.882813
582		-312.500000		5.078125
583		-312.500000		4.687500
584		-312.500000		4.296875
585		312.500000		4.492188
586		312.500000		4.882813
587		312.500000		5.078125
588		312.500000		5.468750
589		312.500000		4.882813
590		312.500000		5.078125
591		312.500000		5.273438
592		312.500000		5.468750
593		312.500000		5.078125
594		312.500000		4.296875
595		312.500000		5.273438
596		312.500000		5.468750
597		312.500000		5.078125
598		312.500000		3.906250
599		312.500000		4.296875
600		312.500000		4.492188
601		312.500000		4.492188
602		312.500000		3.906250
603		312.500000		3.515625
604		312.500000		3.515625
605		312.500000		3.515625
606		312.500000		3.515625
607		312.500000		3.515625
608		312.500000		3.515625
609		312.500000		3.906250
610		312.500000		3.906250
611		312.500000		3.710938
612		312.500000		4.101563
613		312.500000		4.296875
614		312.500000		4.101563
615		312.500000		4.296875
616		312.500000		4.687500
617		312.500000		5.078125
618		312.500000		5.078125
619		-312.500000		4.687500
620		-312.500000		4.492188
621		-312.500000		4.882813
622		-312.500000		5.273438
623		-312.500000		4.882813
624		-312.500000		4.101563
625		-312.500000		4.492188
626		-312.500000		4.687500
627		-312.500000		5.273438
628		-312.500000		3.906250
629		-312.500000		4.492188
630		-312.500000		3.906250
631		-312.500000		3.906250
632		-312.500000		4.492188
633		-312.500000		4.492188
634		-312.500000		4.492188
635		-312.500000		3.906250
636		-312.500000		3.515625
637		-312.500000		4.101563
638		-312.500000		4.101563
639		-312.500000		4.492188
640		-312.500000		4.101563
641		-312.500000		3.320313
642		-312.500000		3.906250
643		-312.500000		4.101563
644		-312.500000		3.906250
645		-312.500000		3.710938
646		-312.500000		3.515625
647		-312.500000		3.320313
648		-312.500000		3.515625
649		-312.500000		3.515625
650		-312.500000		3.515625
651		-312.500000		4.492188
652		-312.500000		3.320313
653		-312.500000		3.906250
654		-312.500000		3.125000
655		-312.500000		3.710938
656		-312.500000		3.710938
657		312.500000		3.710938
658		312.500000		4.492188
659		312.500000		4.492188
660		312.500000		4.687500
661		312.500000		4.687500
662		312.500000		4.687500
663		312.500000		5.468750
664		312.500000		5.273438
665		312.500000		5.468750
666		312.500000		5.468750
667		312.500000		5.273438
668		312.500000		5.468750
669		312.500000		5.859375
670		312.500000		5.859375
671		312.500000		5.468750
672		312.500000		5.273438
673		312.500000		4.882813
674		312.500000		5.273438
675		312.500000		4.882813
676		312.500000		4.492188
677		312.500000		3.906250
678		312.500000		4.882813
679		312.500000		3.906250
680		312.500000		3.710938
681		312.500000		4.492188
682		312.500000		4.882813
683		312.500000		4.687500
684		312.500000		4.101563
685		312.500000		4.882813
686		312.500000		4.687500
687		312.500000		5.273438
688		312.500000		5.468750
689		312.500000		5.468750
690		312.500000		5.078125
691		-312.500000		4.882813
692		-312.500000		4.296875
693		-312.500000		3.515625
694		-312.500000		3.320313
695		-312.500000		2.734375
696		-312.500000		3.125000
697		-312.500000		2.734375
698		-312.500000		2.539063
699		-312.500000		3.320313
700		-312.500000		3.710938
701		-312.500000		4.101563
702		-312.500000		4.882813
703		-312.500000		5.273438
704		-312.500000		4.687500
705		-312.500000		5.273438
706		-312.500000		5.078125
707		-312.500000		5.468750
708		-312.500000		4.492188
709		-312.500000		3.906250
710		-312.500000		3.125000
711		-312.500000		3.710938
712		-312.500000		1.953125
713		-312.500000		3.906250
714		-312.500000		4.882813
715		-312.500000		5.273438
716		-312.500000		5.468750
717		-312.500000		5.273438
718		-312.500000		4.492188
719		-312.500000		4.101563
720		-312.500000		3.906250
721		-312.500000		3.125000
722		-312.500000		2.929688
723		-312.500000		2.929688
724		-312.500000		3.515625
725		-312.500000		4.492188
726		-312.500000		3.906250
727		-312.500000		4.101563
728		-312.500000		3.710938
729		-312.500000		2.734375
730		312.500000		3.125000
731		312.500000		3.515625
732		312.500000		3.710938
733		312.500000		4.687500
734		312.500000		5.468750
735		312.500000		4.492188
736		312.500000		4.492188
737		312.500000		3.320313
738		312.500000		3.125000
739		312.500000		3.710938
740		312.500000		4.492188
741		312.500000		4.101563
742		312.500000		3.906250
743		312.500000		3.125000
744		390.625000		2.929688
745		312.500000		3.515625
