spectrum/data_42_027.csv

Channel              :,CH1,CH2
Frequency            :,1.381kHz,  ?
Period               :,0.724ms,  ?
PK-PK                :,703.1mV,7.422mV
Probe attenuation    :,1X,1X
Voltage per ADC value:,4.882813mV,0.012207mV
Time interval        :,0.40000uS,0.40000uS

index,CH1_Voltage(mV),CH2_Voltage(mV)
1,312.500000,5.078125
2,312.500000,5.078125
3,312.500000,4.882813
4,312.500000,3.906250
5,312.500000,4.492188
6,312.500000,4.492188
7,312.500000,4.101563
8,312.500000,3.906250
9,312.500000,5.273438
10,312.500000,5.078125
11,312.500000,4.296875
12,312.500000,4.882813
13,312.500000,5.273438
14,312.500000,4.492188
15,312.500000,2.734375
16,312.500000,5.078125
17,312.500000,4.882813
18,312.500000,3.710938
19,312.500000,4.882813
20,312.500000,5.664063
21,312.500000,4.882813
22,312.500000,4.296875
23,312.500000,4.882813
24,312.500000,4.687500
25,312.500000,3.710938
26,312.500000,3.710938
27,312.500000,5.859375
28,312.500000,5.078125
29,312.500000,3.710938
30,312.500000,4.882813
31,312.500000,5.078125
32,312.500000,4.492188
33,312.500000,3.710938
34,312.500000,4.492188
35,312.500000,4.492188
36,312.500000,3.710938
37,312.500000,4.101563
38,312.500000,5.078125
39,312.500000,5.078125
40,312.500000,3.906250
41,312.500000,4.492188
42,312.500000,4.687500
43,312.500000,3.710938
44,312.500000,3.125000
45,312.500000,4.296875
46,312.500000,4.296875
47,312.500000,2.734375
48,312.500000,4.296875
49,312.500000,5.273438
50,312.500000,4.296875
51,312.500000,3.515625
52,312.500000,3.906250
53,312.500000,4.492188
54,312.500000,3.515625
55,312.500000,3.320313
56,312.500000,4.882813
57,312.500000,4.687500
58,312.500000,4.687500
59,312.500000,4.101563
60,312.500000,4.296875
61,312.500000,4.687500
62,312.500000,3.710938
63,312.500000,3.906250
64,312.500000,4.687500
65,312.500000,4.101563
66,312.500000,4.101563
67,312.500000,4.882813
68,312.500000,5.273438
69,312.500000,4.296875
70,312.500000,3.320313
71,312.500000,3.710938
72,312.500000,5.273438
73,312.500000,3.320313
74,312.500000,4.101563
75,312.500000,4.882813
76,312.500000,4.882813
77,312.500000,3.710938
78,312.500000,4.687500
79,312.500000,5.078125
80,312.500000,3.710938
81,312.500000,3.710938
82,312.500000,4.101563
83,312.500000,4.101563
84,312.500000,3.320313
85,312.500000,4.492188
86,312.500000,5.468750
87,312.500000,4.882813
88,312.500000,3.906250
89,312.500000,4.296875
90,312.500000,4.492188
91,312.500000,3.906250
92,312.500000,3.710938
93,312.500000,3.906250
94,312.500000,4.492188
95,312.500000,4.101563
96,312.500000,4.101563
97,312.500000,4.882813
98,312.500000,4.492188
99,312.500000,3.125000
100,312.500000,3.906250
101,312.500000,4.492188
102,312.500000,3.906250
103,312.500000,3.906250
104,312.500000,4.882813
105,312.500000,5.078125
106,312.500000,4.101563
107,312.500000,4.101563
108,312.500000,4.296875
109,312.500000,3.906250
110,312.500000,3.515625
111,312.500000,4.101563
112,312.500000,4.882813
113,312.500000,4.882813
114,312.500000,4.101563
115,312.500000,4.296875
116,312.500000,5.664063
117,312.500000,3.710938
118,312.500000,3.320313
119,312.500000,4.296875
120,312.500000,5.078125
121,312.500000,4.101563
122,312.500000,4.296875
123,312.500000,5.078125
124,312.500000,5.078125
125,312.500000,4.492188
126,312.500000,4.101563
127,312.500000,4.492188
128,312.500000,4.882813
129,312.500000,3.515625
130,312.500000,4.882813
131,312.500000,5.859375
132,312.500000,4.492188
133,312.500000,4.296875
134,312.500000,4.882813
135,312.500000,4.687500
136,312.500000,3.906250
137,312.500000,3.906250
138,312.500000,4.882813
139,312.500000,5.859375
140,312.500000,4.296875
141,312.500000,4.492188
142,312.500000,5.468750
143,312.500000,4.687500
144,312.500000,3.710938
145,312.500000,4.492188
146,312.500000,4.882813
147,312.500000,4.101563
148,312.500000,4.687500
149,312.500000,5.468750
150,312.500000,5.273438
151,312.500000,4.492188
152,312.500000,4.492188
153,312.500000,5.078125
154,312.500000,4.296875
155,312.500000,3.710938
156,312.500000,4.882813
157,312.500000,5.078125
158,312.500000,4.492188
159,312.500000,4.882813
160,312.500000,7.226563
161,312.500000,5.078125
162,312.500000,3.320313
163,312.500000,4.492188
164,312.500000,4.687500
165,312.500000,4.101563
166,312.500000,4.296875
167,312.500000,5.273438
168,312.500000,5.078125
169,312.500000,3.906250
170,312.500000,4.492188
171,312.500000,4.882813
172,312.500000,3.710938
173,312.500000,3.320313
174,312.500000,4.492188
175,312.500000,4.687500
176,312.500000,4.296875
177,312.500000,4.101563
178,312.500000,4.882813
179,312.500000,4.687500
180,312.500000,3.710938
181,312.500000,4.101563
182,312.500000,4.492188
183,312.500000,3.515625
184,312.500000,3.906250
185,312.500000,4.101563
186,312.500000,4.296875
187,312.500000,3.906250
188,312.500000,4.296875
189,312.500000,4.687500
190,312.500000,3.515625
191,312.500000,3.320313
192,312.500000,3.320313
193,312.500000,4.687500
194,312.500000,3.515625
195,312.500000,3.710938
196,312.500000,5.078125
197,312.500000,4.492188
198,312.500000,3.515625
199,312.500000,4.296875
200,312.500000,4.296875
201,312.500000,3.906250
202,312.500000,3.515625
203,312.500000,4.296875
204,312.500000,4.492188
205,312.500000,4.882813
206,312.500000,3.515625
207,312.500000,5.078125
208,312.500000,4.492188
209,312.500000,3.515625
210,312.500000,4.101563
211,312.500000,4.492188
212,312.500000,3.710938
213,312.500000,3.906250
214,312.500000,5.078125
215,312.500000,4.882813
216,312.500000,3.906250
217,312.500000,4.492188
218,312.500000,4.687500
219,312.500000,4.101563
220,312.500000,3.515625
221,312.500000,4.492188
222,312.500000,4.687500
223,312.500000,4.101563
224,312.500000,4.296875
225,312.500000,5.273438
226,312.500000,5.078125
227,312.500000,4.101563
228,312.500000,4.492188
229,312.500000,4.687500
230,312.500000,3.710938
231,312.500000,3.125000
232,312.500000,4.882813
233,312.500000,5.078125
234,312.500000,4.296875
235,312.500000,4.492188
236,312.500000,4.687500
237,312.500000,4.101563
238,312.500000,3.710938
239,312.500000,4.296875
240,312.500000,4.687500
241,312.500000,4.101563
242,312.500000,4.492188
243,312.500000,5.273438
244,312.500000,5.468750
245,312.500000,4.101563
246,312.500000,4.492188
247,312.500000,4.882813
248,312.500000,4.101563
249,312.500000,4.101563
250,312.500000,3.710938
251,312.500000,5.273438
252,312.500000,4.296875
253,312.500000,4.492188
254,312.500000,5.078125
255,312.500000,4.492188
256,312.500000,3.515625
257,312.500000,3.906250
258,312.500000,4.492188
259,312.500000,3.906250
260,312.500000,4.296875
261,312.500000,4.882813
262,312.500000,4.882813
263,312.500000,3.906250
264,312.500000,4.101563
265,312.500000,4.492188
266,312.500000,4.101563
267,312.500000,3.320313
268,312.500000,4.492188
269,312.500000,4.882813
270,312.500000,4.296875
271,312.500000,4.296875
272,312.500000,5.078125
273,312.500000,4.687500
274,312.500000,3.710938
275,312.500000,4.101563
276,312.500000,5.078125
277,312.500000,4.101563
278,312.500000,3.515625
279,312.500000,5.078125
280,312.500000,4.101563
281,312.500000,4.101563
282,312.500000,4.492188
283,312.500000,4.882813
284,312.500000,4.687500
285,312.500000,3.710938
286,312.500000,4.101563
287,312.500000,5.273438
288,312.500000,4.687500
289,312.500000,4.296875
290,312.500000,5.078125
291,312.500000,5.078125
292,312.500000,5.078125
293,312.500000,3.710938
294,312.500000,5.273438
295,312.500000,4.492188
296,312.500000,4.101563
297,312.500000,5.078125
298,312.500000,5.664063
299,312.500000,4.687500
300,312.500000,4.296875
301,312.500000,5.078125
302,312.500000,4.882813
303,312.500000,3.515625
304,312.500000,4.101563
305,312.500000,5.273438
306,312.500000,4.492188
307,312.500000,3.906250
308,312.500000,4.882813
309,312.500000,4.882813
310,312.500000,4.101563
311,312.500000,4.101563
312,312.500000,4.687500
313,312.500000,4.296875
314,312.500000,3.906250
315,312.500000,4.687500
316,312.500000,5.468750
317,312.500000,4.687500
318,312.500000,4.101563
319,312.500000,4.687500
320,312.500000,4.882813
321,312.500000,3.906250
322,312.500000,2.929688
323,312.500000,4.882813
324,312.500000,6.835938
325,312.500000,3.710938
326,312.500000,4.296875
327,312.500000,5.273438
328,312.500000,4.687500
329,312.500000,3.710938
330,312.500000,4.101563
331,312.500000,4.492188
332,312.500000,3.710938
333,312.500000,3.710938
334,312.500000,4.882813
335,312.500000,4.687500
336,312.500000,2.734375
337,312.500000,4.296875
338,312.500000,4.687500
339,312.500000,4.101563
340,312.500000,3.515625
341,312.500000,4.101563
342,312.500000,4.492188
343,312.500000,4.101563
344,312.500000,3.710938
345,312.500000,4.687500
346,312.500000,4.687500
347,312.500000,3.906250
348,312.500000,3.515625
349,312.500000,4.296875
350,312.500000,3.710938
351,312.500000,3.515625
352,312.500000,4.101563
353,312.500000,4.882813
354,312.500000,4.101563
355,312.500000,4.101563
356,312.500000,4.687500
357,312.500000,4.882813
358,312.500000,3.710938
359,312.500000,3.515625
360,312.500000,4.687500
361,312.500000,4.687500
362,312.500000,4.296875
363,312.500000,4.296875
364,312.500000,5.468750
365,312.500000,4.687500
366,312.500000,3.710938
367,312.500000,3.320313
368,312.500000,4.492188
369,312.500000,4.296875
370,312.500000,3.710938
371,312.500000,5.078125
372,312.500000,5.078125
373,312.500000,4.492188
374,312.500000,3.906250
375,312.500000,4.687500
376,312.500000,4.687500
377,312.500000,3.710938
378,312.500000,4.687500
379,312.500000,4.687500
380,312.500000,4.882813
381,312.500000,3.906250
382,312.500000,4.296875
383,312.500000,5.273438
384,312.500000,4.101563
385,312.500000,3.710938
386,312.500000,4.101563
387,312.500000,4.687500
388,312.500000,4.296875
389,312.500000,4.101563
390,312.500000,4.882813
391,312.500000,5.468750
392,312.500000,4.492188
393,312.500000,4.101563
394,312.500000,4.687500
395,312.500000,4.296875
396,312.500000,3.710938
397,312.500000,4.296875
398,312.500000,5.078125
399,312.500000,5.078125
400,312.500000,4.492188
401,312.500000,4.687500
402,312.500000,4.882813
403,312.500000,4.296875
404,312.500000,3.710938
405,312.500000,4.492188
406,312.500000,5.078125
407,312.500000,3.906250
408,312.500000,4.101563
409,312.500000,5.468750
410,312.500000,5.078125
411,312.500000,3.710938
412,312.500000,4.101563
413,312.500000,4.687500
414,312.500000,4.687500
415,312.500000,3.710938
416,0.000000,4.492188
417,-312.500000,5.859375
418,-312.500000,4.492188
419,-312.500000,4.492188
420,-312.500000,4.882813
421,-312.500000,4.296875
422,-312.500000,2.929688
423,-312.500000,5.078125
424,-312.500000,4.687500
425,-312.500000,4.296875
426,-312.500000,3.906250
427,-312.500000,4.882813
428,-312.500000,4.882813
429,-312.500000,4.101563
430,-312.500000,3.906250
431,-312.500000,4.687500
432,-312.500000,4.101563
433,-312.500000,3.906250
434,-312.500000,4.687500
435,-312.500000,5.078125
436,-312.500000,4.492188
437,-312.500000,3.906250
438,-312.500000,4.882813
439,-312.500000,4.882813
440,-312.500000,3.710938
441,-312.500000,3.906250
442,-312.500000,4.492188
443,-312.500000,3.710938
444,-312.500000,3.515625
445,-312.500000,4.687500
446,-312.500000,4.687500
447,-312.500000,3.906250
448,-312.500000,3.906250
449,-312.500000,4.882813
450,-312.500000,4.296875
451,-312.500000,3.515625
452,-312.500000,4.101563
453,-312.500000,4.492188
454,-312.500000,5.859375
455,-312.500000,3.515625
456,-312.500000,4.492188
457,-312.500000,4.882813
458,-312.500000,3.710938
459,-312.500000,3.906250
460,-312.500000,4.687500
461,-312.500000,3.515625
462,-312.500000,3.125000
463,-312.500000,4.492188
464,-312.500000,4.882813
465,-312.500000,3.906250
466,-312.500000,5.273438
467,-312.500000,4.882813
468,-312.500000,4.296875
469,-312.500000,3.125000
470,-312.500000,4.101563
471,-312.500000,4.296875
472,-312.500000,3.906250
473,-312.500000,3.515625
474,-312.500000,5.078125
475,-312.500000,4.882813
476,-312.500000,3.906250
477,-312.500000,4.101563
478,-312.500000,4.492188
479,-312.500000,3.710938
480,-312.500000,3.515625
481,-312.500000,4.296875
482,-312.500000,4.492188
483,-312.500000,4.101563
484,-312.500000,3.906250
485,-312.500000,4.687500
486,-312.500000,4.296875
487,-312.500000,3.710938
488,-312.500000,4.101563
489,-312.500000,4.492188
490,-312.500000,3.710938
491,-312.500000,3.906250
492,-312.500000,4.687500
493,-312.500000,4.882813
494,-312.500000,4.492188
495,-312.500000,4.101563
496,-312.500000,4.882813
497,-312.500000,4.296875
498,-312.500000,2.343750
499,-312.500000,3.515625
500,-312.500000,4.687500
501,-312.500000,4.296875
502,-312.500000,3.906250
503,-312.500000,4.687500
504,-312.500000,4.882813
505,-312.500000,4.101563
506,-312.500000,3.710938
507,-312.500000,4.296875
508,-312.500000,4.296875
509,-312.500000,3.710938
510,-312.500000,3.906250
511,-312.500000,4.492188
512,-312.500000,5.078125
513,-312.500000,4.101563
514,-312.500000,4.492188
515,-312.500000,4.492188
516,-312.500000,3.320313
517,-312.500000,3.906250
518,-312.500000,4.687500
519,-312.500000,4.492188
520,-312.500000,4.296875
521,-312.500000,4.687500
522,-312.500000,4.882813
523,-312.500000,3.906250
524,-312.500000,3.710938
525,-312.500000,4.492188
526,-312.500000,4.687500
527,-312.500000,3.710938
528,-312.500000,4.492188
529,-312.500000,5.468750
530,-312.500000,4.492188
531,-312.500000,4.101563
532,-312.500000,4.687500
533,-312.500000,4.882813
534,-312.500000,3.906250
535,-312.500000,3.906250
536,-312.500000,4.687500
537,-312.500000,4.492188
538,-312.500000,4.492188
539,-312.500000,4.882813
540,-312.500000,5.273438
541,-312.500000,4.296875
542,-312.500000,5.468750
543,-312.500000,4.492188
544,-312.500000,4.101563
545,-312.500000,3.710938
546,-312.500000,4.687500
547,-312.500000,5.273438
548,-312.500000,4.687500
549,-312.500000,4.101563
550,-312.500000,4.882813
551,-312.500000,4.687500
552,-312.500000,3.906250
553,-312.500000,3.125000
554,-312.500000,3.320313
555,-312.500000,4.882813
556,-312.500000,3.515625
557,-312.500000,4.687500
558,-312.500000,5.078125
559,-312.500000,4.687500
560,-312.500000,3.906250
561,-312.500000,4.492188
562,-312.500000,4.101563
563,-312.500000,3.515625
564,-312.500000,4.296875
565,-312.500000,4.687500
566,-312.500000,4.296875
567,-312.500000,4.296875
568,-312.500000,4.882813
569,-312.500000,5.078125
570,-312.500000,3.710938
571,-312.500000,3.710938
572,-312.500000,4.687500
573,-312.500000,3.906250
574,-312.500000,3.320313
575,-312.500000,4.296875
576,-312.500000,5.273438
577,-312.500000,4.101563
578,-312.500000,4.101563
579,-312.500000,4.492188
580,-312.500000,4.296875
581,-312.500000,3.320313
582,-312.500000,3.710938
583,-312.500000,4.492188
584,-312.500000,3.906250
585,-312.500000,4.296875
586,-312.500000,4.492188
587,-312.500000,4.687500
588,-312.500000,4.296875
589,-312.500000,3.515625
590,-312.500000,4.101563
591,-312.500000,4.101563
592,-312.500000,3.320313
593,-312.500000,3.710938
594,-312.500000,4.687500
595,-312.500000,4.296875
596,-312.500000,3.906250
597,-312.500000,4.882813
598,-312.500000,4.101563
599,-312.500000,5.078125
600,-312.500000,3.515625
601,-312.500000,4.101563
602,-312.500000,4.101563
603,-312.500000,3.710938
604,-312.500000,4.101563
605,-312.500000,5.078125
606,-312.500000,4.492188
607,-312.500000,3.515625
608,-312.500000,3.906250
609,-312.500000,4.492188
610,-312.500000,3.515625
611,-312.500000,3.515625
612,-312.500000,4.492188
613,-312.500000,4.492188
614,-312.500000,3.710938
615,-312.500000,4.687500
616,-312.500000,4.882813
617,-312.500000,4.296875
618,-312.500000,3.710938
619,-312.500000,4.101563
620,-312.500000,4.296875
621,-312.500000,3.710938
622,-312.500000,3.906250
623,-312.500000,4.687500
624,-312.500000,5.078125
625,-312.500000,3.906250
626,-312.500000,4.296875
627,-312.500000,4.687500
628,-312.500000,4.101563
629,-312.500000,3.320313
630,-312.500000,4.296875
631,-312.500000,5.273438
632,-312.500000,4.101563
633,-312.500000,4.296875
634,-312.500000,4.882813
635,-312.500000,4.882813
636,-312.500000,4.101563
637,-312.500000,3.906250
638,-312.500000,4.492188
639,-312.500000,4.101563
640,-312.500000,4.296875
641,-312.500000,4.101563
642,-312.500000,5.273438
643,-312.500000,4.882813
644,-312.500000,5.273438
645,-312.500000,4.492188
646,-312.500000,4.492188
647,-312.500000,3.906250
648,-312.500000,3.710938
649,-312.500000,4.687500
650,-312.500000,5.273438
651,-312.500000,4.101563
652,-312.500000,4.296875
653,-312.500000,4.882813
654,-312.500000,4.687500
655,-312.500000,3.906250
656,-312.500000,4.101563
657,-312.500000,4.492188
658,-312.500000,4.101563
659,-312.500000,3.710938
660,-312.500000,4.882813
661,-312.500000,4.882813
662,-312.500000,4.492188
663,-312.500000,3.710938
664,-312.500000,4.492188
665,-312.500000,4.492188
666,-312.500000,3.710938
667,-312.500000,3.710938
668,-312.500000,4.882813
669,-312.500000,4.882813
670,-312.500000,6.640625
671,-312.500000,4.492188
672,-312.500000,5.078125
673,-312.500000,4.296875
674,-312.500000,3.320313
675,-312.500000,4.492188
676,-312.500000,4.687500
677,-312.500000,3.906250
678,-312.500000,4.101563
679,-312.500000,5.273438
680,-312.500000,4.687500
681,-312.500000,3.710938
682,-312.500000,4.687500
683,-312.500000,4.882813
684,-312.500000,3.710938
685,-312.500000,3.515625
686,-312.500000,4.492188
687,-312.500000,4.882813
688,-312.500000,4.296875
689,-312.500000,4.296875
690,-312.500000,4.687500
691,-312.500000,4.101563
692,-312.500000,3.906250
693,-312.500000,4.101563
694,-312.500000,4.687500
695,-312.500000,3.906250
696,-312.500000,3.710938
697,-312.500000,4.687500
698,-312.500000,4.882813
699,-312.500000,4.296875
700,-312.500000,4.296875
701,-312.500000,5.078125
702,-312.500000,4.296875
703,-312.500000,3.320313
704,-312.500000,3.710938
705,-312.500000,4.296875
706,-312.500000,3.906250
707,-312.500000,3.906250
708,-312.500000,4.687500
709,-312.500000,4.882813
710,-312.500000,3.906250
711,-312.500000,3.906250
712,-312.500000,4.296875
713,-312.500000,2.148438
714,-312.500000,2.929688
715,-312.500000,4.296875
716,-312.500000,4.492188
717,-312.500000,4.101563
718,-312.500000,3.906250
719,-312.500000,4.492188
720,-312.500000,4.492188
721,-312.500000,3.710938
722,-312.500000,3.710938
723,-312.500000,4.492188
724,-312.500000,4.492188
725,-312.500000,4.296875
726,-312.500000,4.101563
727,-312.500000,4.492188
728,-312.500000,4.687500
729,-312.500000,3.710938
730,-312.500000,4.101563
731,-312.500000,4.296875
732,-312.500000,3.710938
733,-312.500000,3.320313
734,-312.500000,4.492188
735,-312.500000,4.687500
736,-312.500000,3.125000
737,-312.500000,4.296875
738,-312.500000,5.078125
739,-312.500000,4.492188
740,-312.500000,3.515625
741,-312.500000,3.710938
742,-312.500000,4.882813
743,-312.500000,3.515625
744,-312.500000,3.710938
745,-312.500000,4.687500
746,-312.500000,5.078125
747,-312.500000,3.906250
748,-312.500000,4.296875
749,-312.500000,4.882813
750,-312.500000,4.101563
751,-312.500000,3.515625
752,-312.500000,4.101563
753,-312.500000,5.078125
754,-312.500000,4.296875
755,-312.500000,3.710938
756,-312.500000,4.882813
757,-312.500000,4.492188
758,-312.500000,3.710938
759,-312.500000,3.906250
760,-312.500000,4.492188
761,-312.500000,3.906250
762,-312.500000,3.515625
763,-312.500000,4.296875
764,-312.500000,5.078125
765,-312.500000,4.296875
766,-312.500000,3.906250
767,-312.500000,4.492188
768,-312.500000,4.296875
769,-312.500000,2.539063
770,-312.500000,4.687500
771,-312.500000,4.296875
772,-312.500000,4.492188
773,-312.500000,3.710938
774,-312.500000,4.492188
775,-312.500000,4.882813
776,-312.500000,4.492188
777,-312.500000,3.515625
778,-312.500000,4.101563
779,-312.500000,4.882813
780,-312.500000,3.906250
781,-312.500000,3.906250
782,-312.500000,5.664063
783,-312.500000,4.296875
784,-312.500000,4.296875
785,-312.500000,4.492188
786,-312.500000,4.882813
787,-312.500000,3.906250
788,-312.500000,3.125000
789,-312.500000,4.492188
790,-312.500000,4.687500
791,-312.500000,4.101563
792,-312.500000,4.296875
793,-312.500000,5.273438
794,-312.500000,4.687500
795,-312.500000,3.710938
796,-312.500000,3.906250
797,-312.500000,4.492188
798,-312.500000,3.906250
799,-312.500000,3.710938
800,-312.500000,4.882813
801,-312.500000,5.078125
802,-312.500000,3.906250
803,-312.500000,3.906250
804,-312.500000,4.882813
805,-312.500000,4.296875
806,-312.500000,3.515625
807,-312.500000,4.101563
808,-312.500000,4.296875
809,-312.500000,3.906250
