spectrum/data_42_028.csv

Channel              :,CH1,CH2
Frequency            :,  ?,  ?
Period               :,  ?,  ?
PK-PK                :,703.1mV,4.688mV
Probe attenuation    :,1X,1X
Voltage per ADC value:,4.882813mV,0.012207mV
Time interval        :,0.00200uS,0.00200uS

index,CH1_Voltage(mV),CH2_Voltage(mV)
1,-312.500000,1.367188
2,-312.500000,1.367188
3,-312.500000,2.343750
4,-312.500000,3.125000
5,-312.500000,2.734375
6,-312.500000,1.757813
7,-312.500000,0.976563
8,-312.500000,1.171875
9,-312.500000,2.148438
10,-312.500000,2.929688
11,-312.500000,2.929688
12,-312.500000,1.953125
13,-312.500000,0.976563
14,-312.500000,0.976563
15,-312.500000,1.757813
16,-312.500000,2.734375
17,-312.500000,2.734375
18,-312.500000,2.148438
19,-312.500000,1.367188
20,-312.500000,0.976563
21,-312.500000,1.757813
22,-312.500000,2.539063
23,-312.500000,2.929688
24,-312.500000,2.539063
25,-312.500000,1.562500
26,-312.500000,1.171875
27,-312.500000,1.953125
28,-312.500000,2.539063
29,-312.500000,2.734375
30,-312.500000,2.343750
31,-312.500000,1.562500
32,-312.500000,1.171875
33,-312.500000,1.367188
34,-312.500000,1.953125
35,-312.500000,2.148438
36,-312.500000,1.953125
37,-312.500000,1.367188
38,-312.500000,0.976563
39,-312.500000,1.171875
40,-312.500000,1.367188
41,-312.500000,1.562500
42,-312.500000,1.757813
43,-312.500000,1.367188
44,-312.500000,0.585938
45,-312.500000,0.781250
46,-312.500000,1.171875
47,-312.500000,1.562500
48,-312.500000,1.367188
49,-312.500000,0.976563
50,-312.500000,0.976563
51,-312.500000,1.171875
52,-312.500000,1.171875
53,-312.500000,1.367188
54,-312.500000,1.171875
55,-312.500000,0.976563
56,-312.500000,0.976563
57,-312.500000,0.781250
58,-312.500000,0.976563
59,-312.500000,0.976563
60,-312.500000,0.976563
61,-312.500000,0.781250
62,-312.500000,0.781250
63,-312.500000,0.781250
64,-312.500000,0.781250
65,-312.500000,0.781250
66,-312.500000,0.781250
67,-312.500000,0.781250
68,-312.500000,0.585938
69,-312.500000,0.781250
70,-312.500000,0.976563
71,-312.500000,0.976563
72,-312.500000,0.585938
73,-312.500000,0.585938
74,-312.500000,0.781250
75,-312.500000,0.976563
76,-312.500000,1.171875
77,-312.500000,1.171875
78,-312.500000,0.976563
79,-312.500000,0.781250
80,-312.500000,0.976563
81,-312.500000,1.367188
82,-312.500000,1.367188
83,-312.500000,1.367188
84,-312.500000,0.781250
85,-312.500000,0.781250
86,-312.500000,0.976563
87,-312.500000,1.367188
88,-312.500000,1.757813
89,-312.500000,1.562500
90,-312.500000,1.171875
91,-312.500000,0.976563
92,-312.500000,1.171875
93,-312.500000,1.562500
94,-312.500000,1.953125
95,-312.500000,1.953125
96,-312.500000,1.562500
97,-312.500000,1.171875
98,-312.500000,1.367188
99,-312.500000,1.757813
100,-312.500000,2.343750
101,-312.500000,2.148438
102,-312.500000,1.562500
103,-312.500000,1.171875
104,-312.500000,1.367188
105,-312.500000,1.757813
106,-312.500000,2.343750
107,-312.500000,2.539063
108,-312.500000,1.953125
109,-312.500000,1.367188
110,-312.500000,1.562500
111,-312.500000,2.148438
112,-312.500000,2.343750
113,-312.500000,2.343750
114,-312.500000,2.148438
115,-312.500000,1.757813
116,-312.500000,1.562500
117,-312.500000,1.953125
118,-312.500000,2.343750
119,-312.500000,2.539063
120,-312.500000,2.148438
121,-312.500000,1.562500
122,-312.500000,1.562500
123,-312.500000,1.953125
124,-312.500000,2.148438
125,-312.500000,2.148438
126,-312.500000,1.953125
127,-312.500000,1.367188
128,-312.500000,1.367188
129,-312.500000,1.562500
130,-312.500000,1.953125
131,-312.500000,2.148438
132,-312.500000,1.953125
133,-312.500000,1.367188
134,-312.500000,1.562500
135,-312.500000,1.953125
136,-312.500000,2.148438
137,-312.500000,1.953125
138,-312.500000,1.757813
139,-312.500000,1.367188
140,-312.500000,1.367188
141,-312.500000,1.757813
142,-312.500000,1.953125
143,-312.500000,2.148438
144,-312.500000,1.757813
145,-312.500000,1.171875
146,-312.500000,1.171875
147,-312.500000,1.562500
148,-312.500000,1.953125
149,-312.500000,1.757813
150,-312.500000,1.171875
151,-312.500000,0.976563
152,-312.500000,0.976563
153,-312.500000,1.562500
154,-312.500000,1.953125
155,-312.500000,1.757813
156,-312.500000,1.171875
157,-312.500000,0.781250
158,-312.500000,0.781250
159,-312.500000,1.562500
160,-312.500000,1.953125
161,-312.500000,1.953125
162,-312.500000,1.367188
163,-312.500000,0.585938
164,-312.500000,0.390625
165,-312.500000,1.171875
166,-312.500000,1.953125
167,-312.500000,1.953125
168,-312.500000,1.171875
169,-312.500000,0.585938
170,-312.500000,0.195313
171,-312.500000,0.781250
172,-312.500000,1.953125
173,-312.500000,2.148438
174,-312.500000,1.367188
175,-312.500000,0.390625
176,-312.500000,0.195313
177,-312.500000,0.976563
178,-312.500000,1.562500
179,-312.500000,2.148438
180,-312.500000,1.757813
181,-312.500000,0.390625
182,-312.500000,0.000000
183,-312.500000,0.585938
184,-312.500000,1.953125
185,-312.500000,2.343750
186,-312.500000,1.757813
187,-312.500000,0.585938
188,-312.500000,-0.195313
189,-312.500000,0.390625
190,-312.500000,1.367188
191,-312.500000,2.343750
192,-312.500000,1.953125
193,-312.500000,0.781250
194,-312.500000,-0.195313
195,-312.500000,0.000000
196,-312.500000,1.367188
197,-312.500000,2.343750
198,-312.500000,2.148438
199,-312.500000,1.171875
200,-312.500000,-0.195313
201,-312.500000,0.000000
202,-312.500000,1.171875
203,-312.500000,2.148438
204,-312.500000,2.148438
205,-312.500000,1.171875
206,-312.500000,0.195313
207,-312.500000,0.000000
208,-312.500000,0.781250
209,-312.500000,2.148438
210,-312.500000,2.539063
211,-312.500000,1.562500
212,-312.500000,0.195313
213,-312.500000,-0.195313
214,-312.500000,0.585938
215,-312.500000,2.148438
216,-312.500000,2.539063
217,-312.500000,1.757813
218,-312.500000,0.585938
219,-312.500000,0.000000
220,-312.500000,0.585938
221,-312.500000,1.757813
222,-312.500000,2.734375
223,-312.500000,2.148438
224,-312.500000,0.781250
225,-312.500000,0.000000
226,-312.500000,0.390625
227,-312.500000,1.757813
228,-312.500000,2.343750
229,-312.500000,2.148438
230,-312.500000,0.976563
231,-312.500000,0.000000
232,-312.500000,0.195313
233,-312.500000,1.367188
234,-312.500000,2.148438
235,-312.500000,2.148438
236,-312.500000,1.171875
237,-312.500000,0.195313
238,-312.500000,0.390625
239,-312.500000,1.367188
240,-312.500000,2.343750
241,-312.500000,1.953125
242,-312.500000,1.367188
243,-312.500000,0.781250
244,-312.500000,0.781250
245,-312.500000,1.562500
246,-312.500000,2.343750
247,-312.500000,2.539063
248,-312.500000,1.757813
249,-312.500000,0.976563
250,-312.500000,0.976563
251,-312.500000,1.367188
252,-312.500000,2.343750
253,-312.500000,2.539063
254,-312.500000,1.953125
255,-312.500000,1.171875
256,-312.500000,0.781250
257,-312.500000,1.367188
258,-312.500000,2.148438
259,-312.500000,2.343750
260,-312.500000,1.757813
261,-312.500000,1.171875
262,-312.500000,0.976563
263,-312.500000,1.367188
264,-312.500000,2.343750
265,-312.500000,2.343750
266,-312.500000,1.953125
267,-312.500000,1.171875
268,-312.500000,0.976563
269,-312.500000,1.562500
270,-312.500000,2.343750
271,-312.500000,2.343750
272,-312.500000,1.953125
273,-312.500000,1.367188
274,-312.500000,1.171875
275,-312.500000,1.757813
276,-312.500000,2.343750
277,-312.500000,2.148438
278,-312.500000,1.953125
279,-312.500000,1.367188
280,-312.500000,1.171875
281,-312.500000,1.367188
282,-312.500000,2.148438
283,-312.500000,2.539063
284,-312.500000,1.953125
285,-312.500000,1.171875
286,-312.500000,0.976563
287,-312.500000,1.367188
288,-312.500000,1.953125
289,-312.500000,2.343750
290,-312.500000,1.953125
291,-312.500000,1.171875
292,-312.500000,0.781250
293,-312.500000,1.367188
294,-312.500000,1.757813
295,-312.500000,2.343750
296,-312.500000,1.953125
297,-312.500000,0.976563
298,-312.500000,0.585938
299,-312.500000,0.976563
300,-312.500000,1.562500
301,-312.500000,1.953125
302,-312.500000,1.562500
303,-312.500000,0.976563
304,-312.500000,0.585938
305,-312.500000,0.585938
306,-312.500000,1.367188
307,-312.500000,1.953125
308,-312.500000,1.562500
309,-312.500000,0.976563
310,-312.500000,0.390625
311,-312.500000,0.585938
312,-312.500000,1.171875
313,-312.500000,1.757813
314,-312.500000,1.953125
315,-312.500000,1.171875
316,-312.500000,0.390625
317,-312.500000,0.390625
318,-312.500000,1.171875
319,-312.500000,1.953125
320,-312.500000,1.953125
321,-312.500000,1.171875
322,-312.500000,0.585938
323,-312.500000,0.390625
324,-312.500000,0.976563
325,-312.500000,1.953125
326,-312.500000,1.953125
327,-312.500000,1.562500
328,-312.500000,0.781250
329,-312.500000,0.390625
330,-312.500000,0.781250
331,-312.500000,1.562500
332,-312.500000,1.953125
333,-312.500000,1.562500
334,-312.500000,0.781250
335,-312.500000,0.585938
336,-312.500000,0.781250
337,-312.500000,1.562500
338,-312.500000,1.757813
339,-312.500000,1.562500
340,-312.500000,0.976563
341,-312.500000,0.585938
342,-312.500000,0.781250
343,-312.500000,1.171875
344,-312.500000,1.562500
345,-312.500000,1.757813
346,-312.500000,1.171875
347,-312.500000,0.781250
348,-312.500000,0.781250
349,-312.500000,1.171875
350,-312.500000,1.757813
351,-312.500000,1.953125
352,-312.500000,1.367188
353,-312.500000,1.171875
354,-312.500000,1.171875
355,-312.500000,1.367188
356,-312.500000,1.757813
357,-312.500000,1.953125
358,-312.500000,1.953125
359,-312.500000,1.562500
360,-312.500000,1.562500
361,-312.500000,1.367188
362,-312.500000,1.367188
363,-312.500000,1.562500
364,-312.500000,1.367188
365,-312.500000,1.562500
366,-312.500000,1.562500
367,-312.500000,1.562500
368,-312.500000,1.367188
369,-312.500000,1.367188
370,-312.500000,1.367188
371,-312.500000,1.562500
372,-312.500000,1.562500
373,-312.500000,1.367188
374,-312.500000,1.171875
375,-312.500000,1.171875
376,-312.500000,1.171875
377,-312.500000,1.562500
378,-312.500000,1.757813
379,-312.500000,1.562500
380,-312.500000,1.367188
381,-312.500000,1.171875
382,-312.500000,1.171875
383,-312.500000,1.562500
384,-312.500000,1.953125
385,-312.500000,1.757813
386,-312.500000,1.367188
387,-312.500000,1.171875
388,-312.500000,0.976563
389,-312.500000,1.367188
390,-312.500000,1.757813
391,-312.500000,2.148438
392,-312.500000,1.367188
393,-312.500000,0.781250
394,-312.500000,0.781250
395,-312.500000,1.367188
396,-312.500000,1.953125
397,-312.500000,2.148438
398,-312.500000,1.562500
399,-312.500000,0.976563
400,-312.500000,0.585938
401,-312.500000,0.976563
402,-312.500000,1.953125
403,-312.500000,2.148438
404,-312.500000,1.757813
405,-312.500000,0.976563
406,-312.500000,0.585938
407,-312.500000,0.781250
408,-312.500000,1.367188
409,-312.500000,1.953125
410,-312.500000,1.757813
411,-312.500000,0.976563
412,-312.500000,0.195313
413,-312.500000,0.390625
414,-312.500000,1.367188
415,-312.500000,2.148438
416,-312.500000,1.757813
417,-312.500000,0.976563
418,-312.500000,0.195313
419,-312.500000,0.195313
420,-312.500000,1.171875
421,-312.500000,1.953125
422,-312.500000,2.148438
423,-312.500000,1.367188
424,-312.500000,0.781250
425,-312.500000,0.390625
426,-312.500000,0.976563
427,-312.500000,1.953125
428,-312.500000,2.148438
429,-312.500000,1.757813
430,-312.500000,0.585938
431,-312.500000,0.390625
432,-312.500000,1.171875
433,-312.500000,1.953125
434,-312.500000,2.343750
435,-312.500000,1.953125
436,-312.500000,1.171875
437,-312.500000,0.781250
438,-312.500000,1.562500
439,-312.500000,2.539063
440,-312.500000,2.734375
441,-312.500000,2.148438
442,-312.500000,1.757813
443,-312.500000,1.367188
444,-312.500000,1.367188
445,-312.500000,2.148438
446,-312.500000,2.929688
447,-312.500000,2.539063
448,-312.500000,1.757813
449,-312.500000,1.171875
450,-312.500000,1.367188
451,-312.500000,2.148438
452,-312.500000,2.539063
453,-312.500000,2.148438
454,-312.500000,1.562500
455,-312.500000,1.171875
456,-312.500000,1.562500
457,-312.500000,2.148438
458,-312.500000,2.539063
459,-312.500000,2.148438
460,-312.500000,1.757813
461,-312.500000,1.171875
462,-312.500000,1.367188
463,-312.500000,2.343750
464,-312.500000,2.539063
465,-312.500000,2.148438
466,-312.500000,1.367188
467,-312.500000,0.976563
468,-312.500000,1.171875
469,-312.500000,1.757813
470,-312.500000,2.343750
471,-312.500000,2.148438
472,-312.500000,1.367188
473,-312.500000,0.781250
474,-312.500000,1.171875
475,-312.500000,1.953125
476,-312.500000,2.539063
477,-312.500000,2.343750
478,-312.500000,1.562500
479,-312.500000,0.976563
480,-312.500000,1.171875
481,-312.500000,2.148438
482,-312.500000,2.734375
483,-312.500000,2.539063
484,-312.500000,1.562500
485,-312.500000,0.976563
486,-312.500000,1.367188
487,-312.500000,2.148438
488,-312.500000,2.929688
489,-312.500000,2.539063
490,-312.500000,1.757813
491,-312.500000,0.976563
492,-312.500000,0.976563
493,-312.500000,1.953125
494,-312.500000,2.929688
495,-312.500000,2.734375
496,-312.500000,1.757813
497,-312.500000,0.781250
498,-312.500000,0.781250
499,-312.500000,1.562500
500,-312.500000,2.539063
501,-312.500000,2.734375
502,-312.500000,1.562500
503,-312.500000,0.585938
504,-312.500000,0.390625
505,-312.500000,1.171875
506,-312.500000,2.343750
507,-312.500000,2.539063
508,-312.500000,1.757813
509,-312.500000,0.390625
510,-312.500000,0.195313
511,-312.500000,0.781250
512,-312.500000,1.953125
513,-312.500000,2.539063
514,-312.500000,1.757813
515,-312.500000,0.390625
516,-312.500000,-0.195313
517,-312.500000,0.390625
518,-312.500000,1.953125
519,-312.500000,2.734375
520,-312.500000,1.953125
521,-312.500000,0.781250
522,-312.500000,-0.195313
523,-312.500000,0.390625
524,-312.500000,1.757813
525,-312.500000,2.539063
526,-312.500000,2.148438
527,-312.500000,0.976563
528,-312.500000,-0.195313
529,-312.500000,0.195313
530,-312.500000,1.562500
531,-312.500000,2.539063
532,-312.500000,2.734375
533,-312.500000,1.367188
534,-312.500000,0.195313
535,-312.500000,0.585938
536,-312.500000,1.757813
537,-312.500000,2.539063
538,-312.500000,2.734375
539,-312.500000,1.953125
540,-312.500000,0.781250
541,-312.500000,0.585938
542,-312.500000,1.757813
543,-312.500000,2.929688
544,-312.500000,2.929688
545,-312.500000,2.148438
546,-312.500000,1.171875
547,-312.500000,0.781250
548,-312.500000,1.367188
549,-312.500000,2.539063
550,-312.500000,2.929688
551,-312.500000,2.148438
552,-312.500000,0.976563
553,-312.500000,0.585938
554,-312.500000,1.171875
555,-312.500000,2.148438
556,-312.500000,2.929688
557,-312.500000,2.148438
558,-312.500000,1.367188
559,-312.500000,0.781250
560,-312.500000,1.171875
561,-312.500000,1.953125
562,-312.500000,2.539063
563,-312.500000,2.343750
564,-312.500000,1.562500
565,-312.500000,0.781250
566,-312.500000,0.976563
567,-312.500000,1.953125
568,-312.500000,2.343750
569,-312.500000,1.953125
570,-312.500000,1.367188
571,-312.500000,0.976563
572,-312.500000,0.976563
573,-312.500000,1.757813
574,-312.500000,2.148438
575,-312.500000,2.148438
576,-312.500000,1.562500
577,-312.500000,1.171875
578,-312.500000,0.976563
579,-312.500000,1.757813
580,-312.500000,1.953125
581,-312.500000,2.148438
582,-312.500000,1.757813
583,-312.500000,1.367188
584,-312.500000,1.367188
585,-312.500000,1.757813
586,-312.500000,2.148438
587,-312.500000,2.343750
588,-312.500000,1.757813
589,-312.500000,1.367188
590,-312.500000,1.367188
591,-312.500000,1.757813
592,-312.500000,1.953125
593,-312.500000,1.562500
594,-312.500000,1.367188
595,-312.500000,1.171875
596,-312.500000,1.171875
597,-312.500000,1.562500
598,-312.500000,1.757813
599,-312.500000,1.757813
600,-312.500000,1.171875
601,-312.500000,0.976563
602,-312.500000,0.976563
603,-312.500000,1.562500
604,-312.500000,1.757813
605,-312.500000,1.367188
606,-312.500000,0.976563
607,-312.500000,0.781250
608,-312.500000,0.976563
609,-312.500000,1.171875
610,-312.500000,1.171875
611,-312.500000,1.171875
612,-312.500000,0.781250
613,-312.500000,0.390625
614,-312.500000,0.585938
615,-312.500000,0.976563
616,-312.500000,1.367188
617,-312.500000,1.367188
618,-312.500000,0.781250
619,-312.500000,0.585938
620,-312.500000,0.585938
621,-312.500000,1.171875
622,-312.500000,1.562500
623,-312.500000,1.562500
624,-312.500000,0.976563
625,-312.500000,0.585938
626,-312.500000,0.781250
627,-312.500000,1.367188
628,-312.500000,1.562500
629,-312.500000,1.367188
630,-312.500000,0.976563
631,-312.500000,0.585938
632,-312.500000,0.585938
633,-312.500000,0.976563
634,-312.500000,1.562500
635,-312.500000,1.562500
636,-312.500000,1.171875
637,-312.500000,0.781250
638,-312.500000,0.976563
639,-312.500000,1.367188
640,-312.500000,1.562500
641,-312.500000,1.562500
642,-312.500000,1.367188
643,-312.500000,0.976563
644,-312.500000,0.781250
645,-312.500000,1.171875
646,-312.500000,1.562500
647,-312.500000,1.757813
648,-312.500000,1.562500
649,-312.500000,1.171875
650,-312.500000,0.976563
651,-312.500000,1.171875
652,-312.500000,1.367188
653,-312.500000,1.562500
654,-312.500000,1.171875
655,-312.500000,1.171875
656,-312.500000,0.976563
657,-312.500000,1.171875
658,-312.500000,1.562500
659,-312.500000,1.562500
660,-312.500000,1.562500
661,-312.500000,1.367188
662,-312.500000,1.171875
663,-312.500000,1.562500
664,-312.500000,1.562500
665,-312.500000,1.562500
666,-312.500000,1.562500
667,-312.500000,1.562500
668,-312.500000,1.367188
669,-312.500000,1.562500
670,-312.500000,1.757813
671,-312.500000,1.562500
672,-312.500000,1.562500
673,-312.500000,1.562500
674,-312.500000,1.562500
675,-312.500000,1.953125
676,-312.500000,1.757813
677,-312.500000,1.757813
678,-312.500000,1.562500
679,-312.500000,1.562500
680,-312.500000,1.953125
681,-312.500000,2.148438
682,-312.500000,2.148438
683,-312.500000,1.757813
684,-312.500000,1.367188
685,-312.500000,1.367188
686,-312.500000,1.757813
687,-312.500000,2.148438
688,-312.500000,2.148438
689,-312.500000,1.562500
690,-312.500000,0.976563
691,-312.500000,1.171875
692,-312.500000,1.367188
693,-312.500000,1.953125
694,-312.500000,1.953125
695,-312.500000,1.562500
696,-312.500000,0.976563
697,-312.500000,0.781250
698,-312.500000,1.171875
699,-312.500000,1.953125
700,-312.500000,2.148438
701,-312.500000,1.757813
702,-312.500000,0.976563
703,-312.500000,0.781250
704,-312.500000,1.171875
705,-312.500000,1.757813
706,-312.500000,2.148438
707,-312.500000,1.953125
708,-312.500000,0.976563
709,-312.500000,0.390625
710,-312.500000,0.976563
711,-312.500000,1.953125
712,-312.500000,2.343750
713,-312.500000,2.148438
714,-312.500000,1.171875
715,-312.500000,0.390625
716,-312.500000,0.585938
717,-312.500000,1.562500
718,-312.500000,2.343750
719,-312.500000,2.148438
720,-312.500000,1.367188
721,-312.500000,0.585938
722,-312.500000,0.585938
723,-312.500000,1.562500
724,-312.500000,2.539063
725,-312.500000,2.539063
726,-312.500000,1.562500
727,-312.500000,0.585938
728,-312.500000,0.390625
729,-312.500000,0.976563
730,-312.500000,2.148438
731,-312.500000,2.539063
732,-312.500000,1.562500
733,-312.500000,0.390625
734,-312.500000,0.195313
735,-312.500000,0.781250
736,-312.500000,1.953125
737,-312.500000,2.343750
738,-312.500000,1.757813
739,-312.500000,0.585938
740,-312.500000,0.000000
741,-312.500000,0.585938
742,-312.500000,1.953125
743,-312.500000,2.539063
744,-312.500000,1.953125
745,-312.500000,0.781250
746,-312.500000,-0.195313
747,-312.500000,0.585938
748,-312.500000,1.562500
749,-312.500000,2.148438
750,-312.500000,1.953125
751,-312.500000,0.976563
752,-312.500000,0.195313
753,-312.500000,0.390625
754,-312.500000,1.367188
755,-312.500000,2.343750
756,-312.500000,2.148438
757,-312.500000,1.171875
758,-312.500000,0.390625
759,-312.500000,0.585938
760,-312.500000,1.562500
761,-312.500000,2.343750
762,-312.500000,2.343750
763,-312.500000,1.562500
764,-312.500000,0.585938
765,-312.500000,0.585938
766,-312.500000,1.562500
767,-312.500000,2.539063
768,-312.500000,2.539063
769,-312.500000,1.562500
770,-312.500000,0.781250
771,-312.500000,0.781250
772,-312.500000,1.562500
773,-312.500000,2.343750
774,-312.500000,2.734375
775,-312.500000,2.148438
776,-312.500000,1.171875
777,-312.500000,0.781250
778,-312.500000,1.562500
779,-312.500000,2.343750
780,-312.500000,2.539063
781,-312.500000,1.953125
782,-312.500000,1.171875
783,-312.500000,0.976563
784,-312.500000,1.367188
785,-312.500000,2.343750
786,-312.500000,2.343750
787,-312.500000,1.953125
788,-312.500000,1.171875
789,-312.500000,0.781250
790,-312.500000,1.562500
791,-312.500000,2.343750
792,-312.500000,2.734375
