spectrum/data_42_006.csv

Channel              :,CH1,CH2
Frequency            :,3.021kHz,3.021kHz
Period               :,0.331ms,0.331ms
PK-PK                :,5.313V,632.8mV
Probe attenuation    :,1X,1X
Voltage per ADC value:,4.882813mV,0.488281mV
Time interval        :,0.20000uS,0.20000uS

index,CH1_Voltage(mV),CH2_Voltage(mV)
1,2031.250000,617.187500
2,2031.250000,617.187500
3,2031.250000,617.187500
4,2031.250000,617.187500
5,2031.250000,625.000000
6,2031.250000,617.187500
7,2031.250000,625.000000
8,2031.250000,617.187500
9,2031.250000,625.000000
10,2031.250000,625.000000
11,2031.250000,625.000000
12,2031.250000,625.000000
13,2031.250000,625.000000
14,2031.250000,625.000000
15,2031.250000,625.000000
16,2031.250000,625.000000
17,2031.250000,625.000000
18,2031.250000,625.000000
19,2031.250000,625.000000
20,2031.250000,625.000000
21,2031.250000,625.000000
22,2031.250000,625.000000
23,2031.250000,625.000000
24,2031.250000,625.000000
25,2031.250000,625.000000
26,2031.250000,625.000000
27,2031.250000,625.000000
28,2031.250000,625.000000
29,2031.250000,625.000000
30,2031.250000,625.000000
31,2031.250000,625.000000
32,2031.250000,625.000000
33,2031.250000,625.000000
34,2031.250000,617.187500
35,2031.250000,625.000000
36,2031.250000,625.000000
37,2031.250000,617.187500
38,2031.250000,617.187500
39,2031.250000,625.000000
40,2031.250000,617.187500
41,2031.250000,617.187500
42,2031.250000,617.187500
43,2031.250000,617.187500
44,2031.250000,617.187500
45,2031.250000,625.000000
46,2031.250000,617.187500
47,2031.250000,617.187500
48,2031.250000,617.187500
49,2031.250000,617.187500
50,2031.250000,617.187500
51,1953.125000,617.187500
52,2031.250000,617.187500
53,2031.250000,617.187500
54,2031.250000,617.187500
55,2031.250000,617.187500
56,2031.250000,617.187500
57,2031.250000,617.187500
58,2031.250000,617.187500
59,2031.250000,617.187500
60,2031.250000,617.187500
61,2031.250000,617.187500
62,2031.250000,617.187500
63,2031.250000,617.187500
64,2031.250000,617.187500
65,2031.250000,617.187500
66,2031.250000,617.187500
67,2031.250000,617.187500
68,2031.250000,617.187500
69,2031.250000,617.187500
70,2031.250000,617.187500
71,2031.250000,617.187500
72,1953.125000,617.187500
73,2031.250000,617.187500
74,2031.250000,617.187500
75,2031.250000,617.187500
76,2031.250000,617.187500
77,2031.250000,617.187500
78,2031.250000,617.187500
79,2031.250000,617.187500
80,2031.250000,617.187500
81,2031.250000,617.187500
82,2031.250000,617.187500
83,2031.250000,617.187500
84,2031.250000,617.187500
85,2031.250000,617.187500
86,1953.125000,617.187500
87,2031.250000,617.187500
88,2031.250000,617.187500
89,2031.250000,617.187500
90,2031.250000,617.187500
91,2031.250000,617.187500
92,2031.250000,617.187500
93,2031.250000,617.187500
94,2031.250000,617.187500
95,2031.250000,617.187500
96,2031.250000,617.187500
97,2031.250000,617.187500
98,2031.250000,617.187500
99,2031.250000,617.187500
100,2031.250000,617.187500
101,2031.250000,617.187500
102,2031.250000,617.187500
103,2031.250000,617.187500
104,2031.250000,617.187500
105,2031.250000,617.187500
106,2031.250000,617.187500
107,2031.250000,617.187500
108,2031.250000,617.187500
109,2031.250000,617.187500
110,2031.250000,617.187500
111,2031.250000,617.187500
112,2031.250000,617.187500
113,2031.250000,617.187500
114,2031.250000,617.187500
115,2031.250000,617.187500
116,2031.250000,617.187500
117,2031.250000,617.187500
118,2031.250000,617.187500
119,2031.250000,617.187500
120,2031.250000,617.187500
121,2031.250000,617.187500
122,2031.250000,617.187500
123,2031.250000,617.187500
124,2031.250000,617.187500
125,2031.250000,617.187500
126,2031.250000,617.187500
127,2031.250000,625.000000
128,2031.250000,625.000000
129,2031.250000,625.000000
130,2031.250000,625.000000
131,2031.250000,625.000000
132,2031.250000,625.000000
133,1953.125000,625.000000
134,1250.000000,625.000000
135,-2109.375000,625.000000
136,-2968.750000,632.812500
137,-3125.000000,632.812500
138,-3203.125000,632.812500
139,-3203.125000,625.000000
140,-3203.125000,625.000000
141,-3125.000000,617.187500
142,-3125.000000,609.375000
143,-3125.000000,601.562500
144,-3125.000000,593.750000
145,-3125.000000,578.125000
146,-3125.000000,570.312500
147,-3125.000000,562.500000
148,-3125.000000,546.875000
149,-3125.000000,539.062500
150,-3125.000000,523.437500
151,-3125.000000,515.625000
152,-3125.000000,500.000000
153,-3125.000000,492.187500
154,-3125.000000,484.375000
155,-3125.000000,468.750000
156,-3125.000000,460.937500
157,-3125.000000,453.125000
158,-3125.000000,437.500000
159,-3125.000000,429.687500
160,-3125.000000,421.875000
161,-3125.000000,414.062500
162,-3125.000000,398.437500
163,-3125.000000,390.625000
164,-3125.000000,382.812500
165,-3125.000000,375.000000
166,-3125.000000,367.187500
167,-3125.000000,359.375000
168,-3125.000000,351.562500
169,-3125.000000,343.750000
170,-3125.000000,328.125000
171,-3125.000000,320.312500
172,-3125.000000,312.500000
173,-3125.000000,312.500000
174,-3125.000000,296.875000
175,-3125.000000,296.875000
176,-3125.000000,289.062500
177,-3125.000000,281.250000
178,-3125.000000,273.437500
179,-3125.000000,265.625000
180,-3125.000000,257.812500
181,-3125.000000,257.812500
182,-3125.000000,250.000000
183,-3125.000000,242.187500
184,-3125.000000,234.375000
185,-3125.000000,234.375000
186,-3125.000000,226.562500
187,-3125.000000,218.750000
188,-3125.000000,218.750000
189,-3125.000000,210.937500
190,-3125.000000,203.125000
191,-3125.000000,203.125000
192,-3125.000000,203.125000
193,-3125.000000,195.312500
194,-3125.000000,187.500000
195,-3125.000000,187.500000
196,-3125.000000,179.687500
197,-3125.000000,179.687500
198,-3125.000000,171.875000
199,-3125.000000,171.875000
200,-3125.000000,164.062500
201,-3125.000000,164.062500
202,-3125.000000,156.250000
203,-3125.000000,156.250000
204,-3125.000000,148.437500
205,-3125.000000,148.437500
206,-3125.000000,140.625000
207,-3125.000000,140.625000
208,-3125.000000,140.625000
209,-3125.000000,132.812500
210,-3125.000000,132.812500
211,-3125.000000,125.000000
212,-3125.000000,125.000000
213,-3125.000000,125.000000
214,-3125.000000,117.187500
215,-3125.000000,117.187500
216,-3125.000000,109.375000
217,-3125.000000,109.375000
218,-3125.000000,109.375000
219,-3125.000000,109.375000
220,-3125.000000,101.562500
221,-3125.000000,101.562500
222,-3125.000000,93.750000
223,-3125.000000,93.750000
224,-3125.000000,93.750000
225,-3125.000000,93.750000
226,-3125.000000,85.937500
227,-3125.000000,85.937500
228,-3125.000000,85.937500
229,-3125.000000,85.937500
230,-3125.000000,78.125000
231,-3125.000000,78.125000
232,-3125.000000,78.125000
233,-3125.000000,78.125000
234,-3125.000000,70.312500
235,-3125.000000,70.312500
236,-3125.000000,70.312500
237,-3125.000000,70.312500
238,-3125.000000,70.312500
239,-3125.000000,70.312500
240,-3125.000000,70.312500
241,-3125.000000,62.500000
242,-3125.000000,62.500000
243,-3125.000000,62.500000
244,-3125.000000,62.500000
245,-3125.000000,62.500000
246,-3125.000000,62.500000
247,-3125.000000,54.687500
248,-3125.000000,54.687500
249,-3125.000000,54.687500
250,-3125.000000,54.687500
251,-3125.000000,54.687500
252,-3125.000000,54.687500
253,-3125.000000,54.687500
254,-3125.000000,54.687500
255,-3125.000000,54.687500
256,-3125.000000,54.687500
257,-3125.000000,54.687500
258,-3125.000000,54.687500
259,-3125.000000,54.687500
260,-3125.000000,54.687500
261,-3125.000000,54.687500
262,-3125.000000,54.687500
263,-3125.000000,54.687500
264,-3125.000000,46.875000
265,-3125.000000,54.687500
266,-3125.000000,54.687500
267,-3125.000000,46.875000
268,-3125.000000,46.875000
269,-3125.000000,46.875000
270,-3125.000000,46.875000
271,-3125.000000,46.875000
272,-3125.000000,46.875000
273,-3125.000000,46.875000
274,-3125.000000,46.875000
275,-3125.000000,46.875000
276,-3125.000000,46.875000
277,-3125.000000,46.875000
278,-3125.000000,46.875000
279,-3125.000000,46.875000
280,-3125.000000,46.875000
281,-3125.000000,46.875000
282,-3125.000000,46.875000
283,-3125.000000,46.875000
284,-3125.000000,46.875000
285,-3125.000000,46.875000
286,-3125.000000,46.875000
287,-3125.000000,46.875000
288,-3125.000000,46.875000
289,-3125.000000,46.875000
290,-3125.000000,39.062500
291,-3125.000000,39.062500
292,-3125.000000,39.062500
293,-3125.000000,39.062500
294,-3125.000000,39.062500
295,-3125.000000,39.062500
296,-3125.000000,39.062500
297,-3125.000000,39.062500
298,-3125.000000,39.062500
299,-3125.000000,39.062500
300,-3125.000000,31.250000
301,-3125.000000,39.062500
302,-3125.000000,31.250000
303,-3125.000000,39.062500
304,-3125.000000,31.250000
305,-3125.000000,31.250000
306,-3125.000000,31.250000
307,-3125.000000,31.250000
308,-3125.000000,31.250000
309,-3125.000000,31.250000
310,-3125.000000,31.250000
311,-3125.000000,31.250000
312,-3125.000000,31.250000
313,-3125.000000,31.250000
314,-3125.000000,31.250000
315,-3125.000000,23.437500
316,-3125.000000,23.437500
317,-3125.000000,23.437500
318,-3125.000000,23.437500
319,-3125.000000,23.437500
320,-3125.000000,23.437500
321,-3125.000000,23.437500
322,-3125.000000,23.437500
323,-3125.000000,23.437500
324,-3125.000000,23.437500
325,-3125.000000,23.437500
326,-3125.000000,15.625000
327,-3125.000000,15.625000
328,-3125.000000,15.625000
329,-3125.000000,15.625000
330,-3125.000000,15.625000
331,-3125.000000,15.625000
332,-3125.000000,15.625000
333,-3125.000000,15.625000
334,-3125.000000,15.625000
335,-3125.000000,15.625000
336,-3125.000000,7.812500
337,-3125.000000,15.625000
338,-3125.000000,7.812500
339,-3125.000000,7.812500
340,-3125.000000,7.812500
341,-3125.000000,7.812500
342,-3125.000000,7.812500
343,-3125.000000,7.812500
344,-3125.000000,7.812500
345,-3125.000000,7.812500
346,-3125.000000,7.812500
347,-3125.000000,7.812500
348,-3125.000000,7.812500
349,-3125.000000,7.812500
350,-3125.000000,0.000000
351,-3125.000000,7.812500
352,-3125.000000,0.000000
353,-3125.000000,7.812500
354,-3125.000000,0.000000
355,-3125.000000,0.000000
356,-3125.000000,0.000000
357,-3125.000000,0.000000
358,-3125.000000,0.000000
359,-3125.000000,0.000000
360,-3125.000000,0.000000
361,-3125.000000,0.000000
362,-3125.000000,0.000000
363,-3125.000000,0.000000
364,-3125.000000,0.000000
365,-3125.000000,7.812500
366,-3125.000000,7.812500
367,-3125.000000,7.812500
368,-3125.000000,7.812500
369,-3125.000000,7.812500
370,-3125.000000,7.812500
371,-3125.000000,7.812500
372,-3125.000000,7.812500
373,-3125.000000,7.812500
374,-3125.000000,7.812500
375,-3125.000000,7.812500
376,-3125.000000,7.812500
377,-3125.000000,7.812500
378,-3125.000000,7.812500
379,-3125.000000,7.812500
380,-3125.000000,15.625000
381,-3125.000000,7.812500
382,-3125.000000,7.812500
383,-3125.000000,15.625000
384,-3125.000000,15.625000
385,-3125.000000,15.625000
386,-3125.000000,15.625000
387,-3125.000000,15.625000
388,-3125.000000,15.625000
389,-3125.000000,15.625000
390,-3125.000000,15.625000
391,-3125.000000,15.625000
392,-3125.000000,15.625000
393,-3125.000000,15.625000
394,-3125.000000,15.625000
395,-3125.000000,15.625000
396,-3125.000000,15.625000
397,-3125.000000,15.625000
398,-3125.000000,15.625000
399,-3125.000000,15.625000
400,-3125.000000,15.625000
401,-3125.000000,15.625000
402,-3125.000000,15.625000
403,-3125.000000,15.625000
404,-3125.000000,15.625000
405,-3125.000000,15.625000
406,-3125.000000,7.812500
407,-3125.000000,15.625000
408,-3125.000000,7.812500
409,-3125.000000,7.812500
410,-3125.000000,7.812500
411,-3125.000000,15.625000
412,-3125.000000,7.812500
413,-3125.000000,7.812500
414,-3125.000000,7.812500
415,-3125.000000,7.812500
416,-3125.000000,7.812500
417,-3125.000000,7.812500
418,-3125.000000,7.812500
419,-3125.000000,7.812500
420,-3125.000000,7.812500
421,-3125.000000,15.625000
422,-3125.000000,7.812500
423,-3125.000000,7.812500
424,-3125.000000,7.812500
425,-3125.000000,15.625000
426,-3125.000000,15.625000
427,-3125.000000,15.625000
428,-3125.000000,15.625000
429,-3125.000000,15.625000
430,-3125.000000,15.625000
431,-3125.000000,15.625000
432,-3125.000000,15.625000
433,-3125.000000,15.625000
434,-3125.000000,15.625000
435,-3125.000000,15.625000
436,-3125.000000,15.625000
437,-3125.000000,15.625000
438,-3125.000000,15.625000
439,-3125.000000,15.625000
440,-3125.000000,15.625000
441,-3125.000000,15.625000
442,-3125.000000,15.625000
443,-3125.000000,15.625000
444,-3125.000000,15.625000
445,-3125.000000,15.625000
446,-3125.000000,15.625000
447,-3125.000000,15.625000
448,-3125.000000,15.625000
449,-3125.000000,15.625000
450,-3125.000000,15.625000
451,-3125.000000,15.625000
452,-3125.000000,15.625000
453,-3125.000000,15.625000
454,-3125.000000,15.625000
455,-3125.000000,15.625000
456,-3125.000000,15.625000
457,-3125.000000,15.625000
458,-3125.000000,15.625000
459,-3125.000000,15.625000
460,-3125.000000,15.625000
461,-3125.000000,15.625000
462,-3125.000000,15.625000
463,-3125.000000,7.812500
464,-3125.000000,7.812500
465,-3125.000000,7.812500
466,-3125.000000,7.812500
467,-3125.000000,7.812500
468,-3125.000000,7.812500
469,-3125.000000,7.812500
470,-3125.000000,7.812500
471,-3125.000000,7.812500
472,-3125.000000,7.812500
473,-3125.000000,7.812500
474,-3125.000000,7.812500
475,-3125.000000,7.812500
476,-3125.000000,7.812500
477,-3125.000000,7.812500
478,-3125.000000,7.812500
479,-3125.000000,7.812500
480,-3125.000000,7.812500
481,-3125.000000,7.812500
482,-3125.000000,7.812500
483,-3125.000000,7.812500
484,-3125.000000,7.812500
485,-3125.000000,7.812500
486,-3125.000000,7.812500
487,-3125.000000,7.812500
488,-3125.000000,7.812500
489,-3125.000000,7.812500
490,-3125.000000,7.812500
491,-3125.000000,7.812500
492,-3125.000000,7.812500
493,-3125.000000,7.812500
494,-3125.000000,7.812500
495,-3125.000000,7.812500
496,-3125.000000,7.812500
497,-3125.000000,7.812500
498,-3125.000000,7.812500
499,-3125.000000,7.812500
500,-3125.000000,7.812500
501,-3125.000000,7.812500
502,-3125.000000,7.812500
503,-3125.000000,7.812500
504,-3125.000000,7.812500
505,-3125.000000,7.812500
506,-3125.000000,7.812500
507,-3125.000000,7.812500
508,-3125.000000,7.812500
509,-3125.000000,7.812500
510,-3125.000000,7.812500
511,-3125.000000,7.812500
512,-3125.000000,7.812500
513,-3125.000000,7.812500
514,-3125.000000,7.812500
515,-3125.000000,7.812500
516,-3125.000000,7.812500
517,-3125.000000,7.812500
518,-3125.000000,7.812500
519,-3125.000000,7.812500
520,-3125.000000,7.812500
521,-3125.000000,7.812500
522,-3125.000000,7.812500
523,-3125.000000,7.812500
524,-3125.000000,0.000000
525,-3125.000000,0.000000
526,-3125.000000,0.000000
527,-3125.000000,0.000000
528,-3125.000000,0.000000
529,-3125.000000,0.000000
530,-3125.000000,0.000000
531,-3125.000000,0.000000
532,-3125.000000,0.000000
533,-3125.000000,0.000000
534,-3125.000000,0.000000
535,-3125.000000,0.000000
536,-3125.000000,0.000000
537,-3125.000000,0.000000
538,-3125.000000,0.000000
539,-3125.000000,0.000000
540,-3125.000000,0.000000
541,-3125.000000,0.000000
542,-3125.000000,0.000000
543,-3125.000000,0.000000
544,-3125.000000,0.000000
545,-3125.000000,0.000000
546,-3125.000000,0.000000
547,-3125.000000,0.000000
548,-3125.000000,0.000000
549,-3125.000000,0.000000
550,-3125.000000,0.000000
551,-3125.000000,0.000000
552,-3125.000000,7.812500
553,-3125.000000,7.812500
554,-3125.000000,7.812500
555,-3125.000000,7.812500
556,-3125.000000,7.812500
557,-3125.000000,7.812500
558,-3125.000000,15.625000
559,-3125.000000,15.625000
560,-3125.000000,15.625000
561,-3125.000000,15.625000
562,-3125.000000,15.625000
563,-3125.000000,15.625000
564,-3125.000000,23.437500
565,-3125.000000,23.437500
566,-3125.000000,23.437500
567,-3125.000000,23.437500
568,-3125.000000,23.437500
569,-3125.000000,23.437500
570,-3125.000000,23.437500
571,-3125.000000,23.437500
572,-3125.000000,23.437500
573,-3125.000000,23.437500
574,-3125.000000,31.250000
575,-3125.000000,23.437500
576,-3125.000000,23.437500
577,-3125.000000,23.437500
578,-3125.000000,23.437500
579,-3125.000000,23.437500
580,-3125.000000,23.437500
581,-3125.000000,23.437500
582,-3125.000000,23.437500
583,-3125.000000,23.437500
584,-3125.000000,23.437500
585,-3125.000000,23.437500
586,-3125.000000,23.437500
587,-3125.000000,23.437500
588,-3125.000000,15.625000
589,-3125.000000,15.625000
590,-3125.000000,15.625000
591,-3125.000000,15.625000
592,-3125.000000,15.625000
593,-3125.000000,15.625000
594,-3125.000000,15.625000
595,-3125.000000,15.625000
596,-3125.000000,15.625000
597,-3125.000000,15.625000
598,-3125.000000,15.625000
599,-3125.000000,7.812500
600,-3125.000000,7.812500
601,-3125.000000,7.812500
602,-3125.000000,7.812500
603,-3125.000000,7.812500
604,-3125.000000,7.812500
605,-3125.000000,7.812500
606,-3125.000000,7.812500
607,-3125.000000,7.812500
608,-3125.000000,7.812500
609,-3125.000000,7.812500
610,-3125.000000,7.812500
611,-3125.000000,7.812500
612,-3125.000000,7.812500
613,-3125.000000,7.812500
614,-3125.000000,7.812500
615,-3125.000000,7.812500
616,-3125.000000,7.812500
617,-3125.000000,7.812500
618,-3125.000000,7.812500
619,-3125.000000,7.812500
620,-3125.000000,7.812500
621,-3125.000000,7.812500
622,-3125.000000,7.812500
623,-3125.000000,7.812500
624,-3125.000000,7.812500
625,-3125.000000,7.812500
626,-3125.000000,7.812500
627,-3125.000000,7.812500
628,-3125.000000,7.812500
629,-3125.000000,7.812500
630,-3125.000000,7.812500
631,-3125.000000,7.812500
632,-3125.000000,7.812500
633,-3125.000000,7.812500
634,-3125.000000,7.812500
635,-3125.000000,7.812500
636,-3125.000000,7.812500
637,-3125.000000,7.812500
638,-3125.000000,7.812500
639,-3125.000000,7.812500
640,-3125.000000,7.812500
641,-3125.000000,7.812500
642,-3125.000000,7.812500
643,-3125.000000,7.812500
644,-3125.000000,7.812500
645,-3125.000000,7.812500
646,-3125.000000,7.812500
647,-3125.000000,7.812500
648,-3125.000000,7.812500
649,-3125.000000,7.812500
650,-3125.000000,7.812500
651,-3125.000000,7.812500
652,-3125.000000,7.812500
653,-3125.000000,7.812500
654,-3125.000000,7.812500
655,-3125.000000,7.812500
656,-3125.000000,0.000000
657,-3125.000000,0.000000
658,-3125.000000,0.000000
659,-3125.000000,0.000000
660,-3125.000000,0.000000
661,-3125.000000,0.000000
662,-3125.000000,0.000000
663,-3125.000000,0.000000
664,-3125.000000,7.812500
665,-3125.000000,7.812500
666,-3125.000000,7.812500
667,-3125.000000,7.812500
668,-3125.000000,7.812500
669,-3125.000000,7.812500
670,-3125.000000,7.812500
671,-3125.000000,7.812500
672,-3125.000000,7.812500
673,-3125.000000,7.812500
674,-3125.000000,7.812500
675,-3125.000000,0.000000
676,-3125.000000,7.812500
677,-3125.000000,0.000000
678,-3125.000000,7.812500
679,-3125.000000,7.812500
680,-3125.000000,7.812500
681,-3125.000000,7.812500
682,-3125.000000,7.812500
683,-3125.000000,7.812500
684,-3125.000000,7.812500
685,-3125.000000,7.812500
686,-3125.000000,7.812500
687,-3125.000000,0.000000
688,-3125.000000,0.000000
689,-3125.000000,0.000000
690,-3125.000000,0.000000
691,-3125.000000,7.812500
692,-3125.000000,7.812500
693,-3125.000000,7.812500
694,-3125.000000,7.812500
695,-3125.000000,0.000000
696,-3125.000000,7.812500
697,-3125.000000,7.812500
698,-3125.000000,7.812500
699,-3125.000000,7.812500
700,-3125.000000,7.812500
701,-3125.000000,7.812500
702,-3125.000000,7.812500
703,-3125.000000,7.812500
704,-3125.000000,7.812500
705,-3125.000000,7.812500
706,-3125.000000,7.812500
707,-3125.000000,7.812500
708,-3125.000000,7.812500
709,-3125.000000,7.812500
710,-3125.000000,7.812500
711,-3125.000000,7.812500
712,-3125.000000,7.812500
713,-3125.000000,7.812500
714,-3125.000000,7.812500
715,-3125.000000,7.812500
716,-3125.000000,7.812500
717,-3125.000000,7.812500
718,-3125.000000,7.812500
719,-3125.000000,7.812500
720,-3125.000000,7.812500
721,-3125.000000,7.812500
722,-3125.000000,7.812500
723,-3125.000000,7.812500
724,-3125.000000,7.812500
725,-3125.000000,7.812500
726,-3125.000000,7.812500
727,-3125.000000,7.812500
728,-3125.000000,7.812500
729,-3125.000000,7.812500
730,-3125.000000,7.812500
731,-3125.000000,7.812500
732,-3125.000000,7.812500
733,-3125.000000,7.812500
734,-3125.000000,7.812500
735,-3125.000000,7.812500
736,-3125.000000,7.812500
737,-3125.000000,7.812500
738,-3125.000000,7.812500
739,-3125.000000,7.812500
740,-3125.000000,7.812500
741,-3125.000000,7.812500
